123.35274505615234,181.6461181640625,
124.37799072265625,210.48765563964844,
128.68199157714844,239.20338439941406,
135.32876586914062,268.3753356933594,
147.30075073242188,293.8033447265625,
166.97958374023438,315.7402648925781,
190.12681579589844,332.476318359375,
217.40713500976562,341.96234130859375,
248.45164489746094,341.93096923828125,
277.27203369140625,337.1884460449219,
300.9976806640625,323.195068359375,
319.8504638671875,303.8222961425781,
332.7130432128906,280.353271484375,
339.18695068359375,254.13290405273438,
342.62530517578125,227.86160278320312,
344.1160888671875,203.94703674316406,
343.1138610839844,179.4300079345703,
146.90431213378906,145.30397033691406,
161.31805419921875,129.34854125976562,
182.77651977539062,124.84917449951172,
203.81851196289062,126.89313507080078,
222.85597229003906,134.49278259277344,
253.06690979003906,133.01858520507812,
272.3398742675781,126.1632080078125,
292.65936279296875,123.31133270263672,
312.2813720703125,128.5459747314453,
324.3519287109375,144.21343994140625,
241.48272705078125,157.70895385742188,
242.78541564941406,173.60760498046875,
244.36708068847656,188.9114990234375,
245.8379669189453,205.77537536621094,
217.57888793945312,227.87179565429688,
230.60446166992188,230.14503479003906,
243.02586364746094,231.57937622070312,
254.59669494628906,229.76467895507812,
265.6441345214844,227.3260498046875,
167.62803649902344,167.19483947753906,
179.2255859375,160.20828247070312,
193.0087890625,159.81480407714844,
205.72268676757812,168.39381408691406,
193.60586547851562,171.2603302001953,
179.44003295898438,171.77940368652344,
268.05609130859375,167.76043701171875,
280.2384033203125,158.6464385986328,
293.8387451171875,159.17063903808594,
305.0155944824219,166.30010986328125,
294.6121826171875,170.53033447265625,
281.11639404296875,170.54122924804688,
200.17576599121094,271.9344482421875,
216.07342529296875,256.7963562011719,
231.74473571777344,247.32984924316406,
242.75357055664062,250.462158203125,
253.81478881835938,247.3537139892578,
267.4835205078125,255.86692810058594,
280.83038330078125,268.75836181640625,
267.22698974609375,277.5886535644531,
254.37875366210938,280.3122253417969,
242.85540771484375,281.53192138671875,
231.0862274169922,280.95745849609375,
215.92030334472656,279.0075988769531,
206.9588165283203,270.5939636230469,
231.9008331298828,262.76104736328125,
242.76229858398438,262.8419189453125,
254.07676696777344,262.26611328125,
273.7377014160156,268.2120361328125,
253.6468048095703,263.746337890625,
242.50230407714844,265.02972412109375,
231.4430694580078,264.63897705078125,
