139.232666015625,201.81089782714844,
138.47532653808594,225.71029663085938,
142.84376525878906,249.39955139160156,
148.1231231689453,272.7381896972656,
153.8143768310547,296.4898376464844,
164.947509765625,319.8875732421875,
179.5792694091797,339.430419921875,
196.55892944335938,352.2453918457031,
218.12620544433594,356.1604919433594,
243.59878540039062,355.41436767578125,
269.3485107421875,345.9296569824219,
291.2764892578125,329.9204406738281,
307.1560974121094,308.59173583984375,
317.3982238769531,283.8996276855469,
323.9183349609375,257.76641845703125,
329.0505065917969,229.64556884765625,
330.23553466796875,201.40306091308594,
147.01397705078125,175.04962158203125,
154.85501098632812,164.66183471679688,
168.0281219482422,162.42129516601562,
181.48875427246094,165.69566345214844,
193.98095703125,170.998046875,
227.2652587890625,169.8557586669922,
245.620361328125,163.28280639648438,
263.9605712890625,161.2439727783203,
282.57305908203125,165.30091857910156,
297.2821960449219,176.3966827392578,
210.90748596191406,195.41226196289062,
209.45809936523438,211.9459991455078,
207.64602661132812,227.7523956298828,
205.799560546875,244.47451782226562,
191.7506103515625,261.79278564453125,
200.2858123779297,264.37847900390625,
208.69281005859375,266.1904602050781,
218.3650360107422,264.70916748046875,
228.1673126220703,263.1216735839844,
161.27061462402344,201.3076934814453,
169.9589080810547,196.24658203125,
180.22763061523438,196.7541046142578,
189.25857543945312,203.6307373046875,
179.6407470703125,205.3607635498047,
169.39004516601562,204.9145965576172,
241.93185424804688,203.7400665283203,
252.20462036132812,196.72911071777344,
263.2330627441406,196.6825408935547,
274.5276794433594,201.86196899414062,
263.8424987792969,205.17955017089844,
252.81472778320312,205.5377655029297,
185.71044921875,300.3932800292969,
191.95571899414062,289.3324279785156,
201.44871520996094,284.0147705078125,
209.68087768554688,286.4439392089844,
218.87295532226562,284.3343505859375,
232.57742309570312,290.34466552734375,
246.61917114257812,302.1175537109375,
232.71371459960938,309.858154296875,
220.0049591064453,312.63934326171875,
210.005859375,313.2601623535156,
201.01959228515625,312.1683044433594,
192.77093505859375,307.72711181640625,
191.46937561035156,299.8735046386719,
201.44827270507812,292.3128967285156,
209.77903747558594,293.4273376464844,
219.16175842285156,292.87109375,
240.1751251220703,300.7943115234375,
219.2152099609375,300.67742919921875,
209.71514892578125,301.485107421875,
201.29774475097656,300.4118957519531,
