122.05897521972656,205.3667755126953,
121.93010711669922,230.6125946044922,
124.66226959228516,254.48886108398438,
132.6006317138672,277.4802551269531,
143.99038696289062,299.4631652832031,
158.89114379882812,319.7248229980469,
175.55599975585938,337.6533203125,
192.35076904296875,353.44256591796875,
212.54893493652344,356.441162109375,
233.541015625,350.0519714355469,
252.28688049316406,334.60443115234375,
271.2039489746094,315.8799133300781,
288.33404541015625,293.6546630859375,
299.20928955078125,268.6104736328125,
303.9181213378906,240.9792938232422,
305.83740234375,211.45355224609375,
304.5182800292969,182.6578826904297,
127.2169189453125,181.74490356445312,
134.736083984375,169.94371032714844,
148.00360107421875,165.22500610351562,
162.4651641845703,165.20101928710938,
176.80555725097656,170.41160583496094,
208.96701049804688,168.7113494873047,
226.11907958984375,159.39971923828125,
245.09149169921875,154.85092163085938,
264.4980773925781,155.66143798828125,
279.5724792480469,166.29129028320312,
195.5686798095703,198.9079132080078,
195.44882202148438,215.62896728515625,
195.26109313964844,232.26478576660156,
195.3218536376953,249.0861358642578,
182.646728515625,265.7140197753906,
191.66107177734375,267.1874694824219,
201.2943572998047,268.0750427246094,
211.06527709960938,265.21368408203125,
221.05499267578125,261.9282531738281,
144.82127380371094,207.5286102294922,
152.24929809570312,198.5958709716797,
164.39076232910156,197.88900756835938,
177.2822723388672,206.23550415039062,
164.52957153320312,209.49522399902344,
152.41592407226562,210.45785522460938,
225.18252563476562,200.53500366210938,
234.5635528564453,188.8593292236328,
247.98159790039062,186.90895080566406,
260.5108947753906,192.3339080810547,
250.2173614501953,198.4705810546875,
236.82925415039062,200.8870086669922,
173.48855590820312,297.1981506347656,
183.05711364746094,291.6750183105469,
194.8271484375,286.8059997558594,
204.89215087890625,289.00531005859375,
213.81642150878906,284.8221740722656,
230.3738555908203,285.4891357421875,
247.44699096679688,286.83197021484375,
233.4861602783203,303.56060791015625,
218.9011688232422,313.2654724121094,
208.6040496826172,315.87872314453125,
198.4962921142578,316.0074157714844,
186.14857482910156,310.7214660644531,
179.26220703125,297.9744873046875,
195.93991088867188,295.84039306640625,
205.65261840820312,296.47332763671875,
215.0417022705078,293.7478332519531,
242.08827209472656,288.6621398925781,
216.8369598388672,300.5044860839844,
207.28689575195312,302.7661437988281,
197.49380493164062,302.3443603515625,
