106.38926696777344,173.03680419921875,
107.05049896240234,203.2119598388672,
109.57952880859375,234.05426025390625,
116.35457611083984,263.7572937011719,
132.44044494628906,288.8232421875,
157.81097412109375,307.21124267578125,
187.74546813964844,320.04241943359375,
217.5991973876953,329.1915588378906,
245.919677734375,331.903564453125,
269.5792541503906,327.48358154296875,
286.310791015625,314.2967834472656,
299.36993408203125,297.8763122558594,
309.0738830566406,277.2471618652344,
314.5672607421875,255.23846435546875,
318.3511962890625,232.1692352294922,
320.0039978027344,210.22731018066406,
318.92327880859375,189.3113250732422,
155.71705627441406,124.84754180908203,
174.5525360107422,112.80213165283203,
195.4091339111328,107.26374053955078,
216.14981079101562,108.67974853515625,
234.23663330078125,117.97020721435547,
269.1315002441406,122.88088989257812,
283.5625305175781,119.85590362548828,
298.4925842285156,121.88838195800781,
310.35296630859375,130.4544677734375,
314.7778625488281,144.14170837402344,
254.80653381347656,150.6660614013672,
257.37286376953125,166.0025177001953,
260.5688781738281,180.66590881347656,
263.5448913574219,196.01336669921875,
229.8816680908203,215.972900390625,
242.259521484375,219.4457244873047,
254.40118408203125,222.02171325683594,
263.8222961425781,221.6152801513672,
272.05950927734375,220.04690551757812,
178.60443115234375,152.94805908203125,
191.7649383544922,148.43301391601562,
204.99827575683594,149.57537841796875,
216.25775146484375,158.33035278320312,
204.22056579589844,158.96534729003906,
190.6267547607422,157.50640869140625,
266.8597717285156,165.09266662597656,
279.45428466796875,159.98794555664062,
290.8567199707031,162.2598114013672,
298.3501281738281,169.9013214111328,
289.6469421386719,170.90597534179688,
278.29638671875,169.24072265625,
205.51132202148438,257.6210021972656,
224.90753173828125,244.6236114501953,
241.7738800048828,237.81033325195312,
251.46051025390625,241.19676208496094,
261.72039794921875,239.7829132080078,
271.15606689453125,248.7567901611328,
277.2469787597656,263.5560607910156,
269.5257263183594,269.6009216308594,
260.5946044921875,272.0312194824219,
249.420166015625,272.6427001953125,
238.6064910888672,270.4872741699219,
223.24789428710938,265.6011962890625,
212.51614379882812,256.8841552734375,
240.73123168945312,252.98052978515625,
250.58734130859375,254.20925903320312,
260.936767578125,254.5809783935547,
270.8502502441406,261.6208190917969,
260.8882751464844,256.44415283203125,
250.43214416503906,256.71124267578125,
240.36520385742188,255.07089233398438,
