94.93772888183594,191.49819946289062,
99.11717224121094,219.2176971435547,
104.68915557861328,247.0322265625,
111.15067291259766,273.88909912109375,
123.92686462402344,297.8270263671875,
147.27650451660156,314.6188049316406,
176.4738311767578,322.2287292480469,
207.6401824951172,325.6712951660156,
236.97702026367188,324.7388916015625,
263.4831237792969,319.2530212402344,
284.6418151855469,308.2025146484375,
300.75738525390625,292.62640380859375,
309.544921875,271.8377380371094,
311.9985046386719,248.75509643554688,
313.09033203125,226.2803192138672,
311.4169921875,205.01583862304688,
307.6709289550781,183.526611328125,
128.82814025878906,149.75469970703125,
144.3780517578125,133.0143585205078,
165.69143676757812,125.26353454589844,
189.18539428710938,126.10375213623047,
209.31224060058594,134.8728790283203,
240.41867065429688,133.64276123046875,
255.3312225341797,126.63735961914062,
272.0747985839844,125.78617095947266,
286.9707336425781,131.6285400390625,
295.5912170410156,143.9784698486328,
229.0232696533203,156.70809936523438,
232.41867065429688,167.92617797851562,
236.37362670898438,178.9372100830078,
240.40223693847656,190.994140625,
213.7061309814453,215.76870727539062,
225.53668212890625,216.8386993408203,
237.06358337402344,217.58694458007812,
246.14447021484375,215.95449829101562,
253.8298797607422,212.89682006835938,
154.50440979003906,166.68406677246094,
166.8625030517578,156.71304321289062,
181.18763732910156,156.0530548095703,
191.92782592773438,167.8883819580078,
181.22531127929688,169.71755981445312,
166.82164001464844,169.67308044433594,
250.3875274658203,166.12368774414062,
260.6908264160156,154.44532775878906,
273.04840087890625,154.01840209960938,
281.7210388183594,163.68878173828125,
274.525634765625,166.14642333984375,
262.188232421875,166.7874755859375,
195.00013732910156,264.11944580078125,
211.692138671875,243.54824829101562,
228.74095153808594,232.9141082763672,
237.54759216308594,234.8190460205078,
246.56922912597656,231.82431030273438,
257.620361328125,241.12448120117188,
263.0877380371094,259.71649169921875,
257.9674377441406,265.90008544921875,
248.46160888671875,269.5192565917969,
238.73016357421875,270.92791748046875,
229.3699951171875,271.61846923828125,
212.35568237304688,269.7499084472656,
201.97129821777344,261.197265625,
229.22987365722656,245.6398162841797,
238.087158203125,245.1580810546875,
246.94578552246094,244.55938720703125,
256.7817077636719,257.19921875,
247.24391174316406,255.5177764892578,
237.9549102783203,256.9664001464844,
229.03358459472656,257.3620300292969,
