100.57034301757812,147.6746368408203,
102.08445739746094,177.77975463867188,
106.15428924560547,207.80958557128906,
113.83935546875,235.9883270263672,
128.61279296875,260.04876708984375,
150.456298828125,278.63330078125,
175.8477783203125,292.5146789550781,
199.39390563964844,302.2388610839844,
220.4331512451172,303.6542663574219,
238.31185913085938,298.5164489746094,
250.81336975097656,283.78192138671875,
264.32867431640625,267.7587585449219,
276.4404296875,249.7456512451172,
285.5054931640625,231.31137084960938,
290.71075439453125,211.3935546875,
292.0031433105469,190.3740997314453,
291.46978759765625,169.34579467773438,
146.0220184326172,132.87741088867188,
163.5767822265625,122.98460388183594,
183.12940979003906,119.69884490966797,
202.62466430664062,123.77326202392578,
220.2734375,133.19961547851562,
245.5109405517578,137.5125732421875,
257.255126953125,133.18150329589844,
270.4993591308594,131.34010314941406,
282.7846984863281,134.45008850097656,
289.6332702636719,143.76739501953125,
231.03121948242188,158.9777374267578,
232.72747802734375,175.35890197753906,
234.85443115234375,191.46817016601562,
237.0185546875,207.79151916503906,
211.22396850585938,223.8570556640625,
220.48513793945312,224.7981414794922,
229.8423309326172,225.72286987304688,
237.92994689941406,224.77130126953125,
245.1604766845703,222.99546813964844,
167.83050537109375,155.0682830810547,
180.5614776611328,153.097412109375,
192.26707458496094,154.12396240234375,
201.60765075683594,160.89051818847656,
190.3798828125,161.50473022460938,
178.9845733642578,159.6185302734375,
243.8396759033203,164.74400329589844,
253.14321899414062,159.66783142089844,
262.6903076171875,159.99046325683594,
270.1517028808594,164.03797912597656,
262.4597473144531,166.3556365966797,
253.15023803710938,166.12937927246094,
191.27163696289062,258.3369140625,
206.64608764648438,251.03189086914062,
219.573974609375,245.66806030273438,
227.6571502685547,248.4412841796875,
235.19802856445312,245.978759765625,
241.71759033203125,250.794189453125,
245.21832275390625,258.6296691894531,
240.63833618164062,263.8206787109375,
233.9384765625,267.3876647949219,
226.16091918945312,268.1553649902344,
217.41688537597656,267.83319091796875,
205.54498291015625,264.9989318847656,
196.87649536132812,258.282470703125,
218.6312255859375,255.605712890625,
226.8546600341797,256.2733154296875,
234.3041229248047,255.28369140625,
241.91648864746094,258.4397888183594,
234.7738037109375,255.7985382080078,
227.4717254638672,256.74688720703125,
219.11131286621094,256.46051025390625,
