121.08209228515625,172.53860473632812,
122.12567901611328,198.20591735839844,
127.09477996826172,223.5010986328125,
135.14773559570312,247.87049865722656,
147.93850708007812,268.79547119140625,
167.03472900390625,286.9082946777344,
186.91746520996094,301.2909851074219,
206.24728393554688,312.3873596191406,
225.39410400390625,314.4823303222656,
243.7936248779297,309.8488464355469,
261.11529541015625,295.54302978515625,
279.5745849609375,279.44134521484375,
296.87750244140625,260.4614562988281,
308.65252685546875,238.2166290283203,
315.0569152832031,212.75155639648438,
318.13555908203125,187.03041076660156,
317.9242248535156,161.06951904296875,
141.34837341308594,149.60104370117188,
154.19093322753906,140.52740478515625,
169.50192260742188,136.68113708496094,
185.5053253173828,137.8939208984375,
200.67576599121094,142.7570037841797,
237.128662109375,139.8512725830078,
250.7168426513672,132.05836486816406,
266.2651672363281,128.59890747070312,
281.6073303222656,130.81845092773438,
294.3394775390625,139.2865753173828,
220.52957153320312,167.0131378173828,
221.3509521484375,182.9078826904297,
222.09228515625,198.2166748046875,
222.77084350585938,213.92079162597656,
203.6488800048828,230.4457550048828,
213.69456481933594,230.95079040527344,
223.20849609375,231.72613525390625,
232.70262145996094,229.68310546875,
241.8255615234375,227.13653564453125,
160.3232421875,174.4459228515625,
170.425537109375,169.1643829345703,
181.42431640625,168.650390625,
190.65609741210938,175.62905883789062,
181.12159729003906,177.43460083007812,
170.2347869873047,177.14451599121094,
247.7976531982422,171.8624725341797,
256.4095764160156,163.50697326660156,
267.2508850097656,162.57749938964844,
278.2470703125,166.91136169433594,
268.7716369628906,170.88888549804688,
258.03033447265625,172.34170532226562,
184.3872528076172,255.57962036132812,
197.1221160888672,247.59658813476562,
212.77777099609375,243.0092315673828,
222.37403869628906,244.66380310058594,
231.8020477294922,242.118408203125,
246.02406311035156,245.1861114501953,
258.9329833984375,251.8187255859375,
246.37362670898438,270.7270812988281,
233.9193572998047,279.4599609375,
223.56517028808594,281.2300720214844,
213.06373596191406,280.55120849609375,
198.4639892578125,273.1191101074219,
190.43092346191406,255.60475158691406,
213.1049346923828,251.14767456054688,
222.8609161376953,251.80787658691406,
232.39108276367188,250.08697509765625,
252.8348388671875,252.78378295898438,
232.7019805908203,266.34259033203125,
222.8617401123047,268.7217712402344,
213.06385803222656,267.9319152832031,
