19.07571792602539,187.38442993164062,
22.030973434448242,212.21588134765625,
27.647829055786133,235.03073120117188,
35.624107360839844,256.05999755859375,
49.216575622558594,273.9595031738281,
67.53045654296875,287.384765625,
88.46305847167969,296.31805419921875,
109.76704406738281,301.7089538574219,
130.23941040039062,300.073486328125,
146.99090576171875,294.07818603515625,
159.9996337890625,282.3005676269531,
172.05247497558594,267.81634521484375,
181.80252075195312,250.95880126953125,
187.7373809814453,232.01602172851562,
190.9349365234375,211.9744110107422,
191.57211303710938,191.40391540527344,
188.6610870361328,171.33331298828125,
46.44583511352539,171.54745483398438,
58.70236587524414,161.5545654296875,
75.04961395263672,157.60800170898438,
91.76969909667969,160.2025146484375,
107.48029327392578,165.47537231445312,
131.8467254638672,163.61538696289062,
143.8987579345703,156.6759033203125,
156.14013671875,150.4700469970703,
170.0936279296875,148.42015075683594,
180.7444305419922,155.73153686523438,
121.90835571289062,181.54531860351562,
123.7917251586914,192.5523681640625,
126.05846405029297,203.83242797851562,
128.31472778320312,215.75387573242188,
108.92338562011719,231.3966522216797,
118.79890441894531,231.06163024902344,
128.4558563232422,230.89625549316406,
136.39608764648438,228.61581420898438,
144.29832458496094,226.0433349609375,
66.03771209716797,188.46156311035156,
75.71434020996094,183.519287109375,
85.98050689697266,182.10081481933594,
95.54379272460938,186.6741180419922,
86.21001434326172,189.1619110107422,
76.27310180664062,190.0759735107422,
142.52862548828125,180.47674560546875,
150.1223602294922,173.556396484375,
159.69668579101562,172.4886474609375,
168.21975708007812,175.568603515625,
160.88807678222656,179.27481079101562,
151.5316619873047,180.5344696044922,
95.98428344726562,262.9010009765625,
108.24444580078125,251.53326416015625,
120.70582580566406,244.18661499023438,
128.8223876953125,245.23626708984375,
135.62669372558594,242.27354431152344,
145.33082580566406,245.4022979736328,
153.1173553466797,253.1383056640625,
146.51463317871094,263.4417419433594,
138.42892456054688,269.2583312988281,
130.89093017578125,271.33856201171875,
122.23574829101562,272.0112609863281,
109.7305679321289,270.5989074707031,
101.68183898925781,261.8430480957031,
121.40193939208984,253.415771484375,
129.55625915527344,252.50888061523438,
136.59361267089844,251.03762817382812,
147.47145080566406,253.93533325195312,
136.80055236816406,257.4727783203125,
129.7654571533203,259.2815246582031,
121.61457824707031,260.1076965332031,
