103.4886703491211,140.04281616210938,
104.52764892578125,162.23275756835938,
108.03597259521484,184.86376953125,
113.25395202636719,205.7609405517578,
124.19120025634766,224.5685272216797,
142.50067138671875,238.154296875,
163.9333038330078,246.43136596679688,
183.4510955810547,252.46038818359375,
201.41603088378906,255.390869140625,
217.35731506347656,253.76434326171875,
230.99880981445312,244.87303161621094,
243.8297119140625,234.037109375,
254.1881866455078,219.28521728515625,
260.16900634765625,203.25257873535156,
264.9512939453125,187.02464294433594,
266.44677734375,171.46128845214844,
264.9014587402344,156.05824279785156,
135.7102813720703,115.2724609375,
149.3661651611328,105.77288055419922,
166.26119995117188,102.5661849975586,
182.671875,105.32289123535156,
197.72010803222656,112.91278839111328,
224.60308837890625,116.1648178100586,
235.83082580566406,113.1623764038086,
247.03382873535156,115.18054962158203,
256.6136169433594,121.0184097290039,
260.6903991699219,130.92637634277344,
212.35739135742188,135.19046020507812,
213.81405639648438,144.11024475097656,
215.5006866455078,152.51559448242188,
217.25030517578125,161.59593200683594,
193.80126953125,179.28656005859375,
203.0395050048828,180.09994506835938,
211.3843994140625,181.5462646484375,
218.62872314453125,182.18377685546875,
225.17953491210938,182.0649871826172,
155.06790161132812,134.2679901123047,
165.52252197265625,130.0309600830078,
174.90480041503906,131.01736450195312,
182.0471649169922,138.59593200683594,
173.64590454101562,138.1160125732422,
164.24391174316406,136.5438995361328,
227.58901977539062,144.8536834716797,
235.67987060546875,140.0341796875,
243.7203826904297,141.39297485351562,
250.38397216796875,147.98770141601562,
243.11883544921875,147.49049377441406,
235.09498596191406,146.36734008789062,
167.9512176513672,204.7253875732422,
184.64215087890625,197.52386474609375,
200.19921875,195.3994140625,
207.7024688720703,197.98141479492188,
214.82882690429688,197.15322875976562,
223.9817352294922,202.27391052246094,
230.1218719482422,212.25228881835938,
221.73638916015625,221.3270721435547,
212.73577880859375,224.28866577148438,
205.1208038330078,223.91114807128906,
196.55740356445312,222.49928283691406,
182.56507873535156,216.60946655273438,
172.6585235595703,204.91378784179688,
199.33572387695312,201.53819274902344,
207.03866577148438,203.40927124023438,
214.02711486816406,203.63775634765625,
225.1868133544922,211.25559997558594,
213.4478302001953,214.55657958984375,
206.29148864746094,214.93563842773438,
198.19825744628906,213.83633422851562,
