123.04702758789062,146.96041870117188,
124.42767333984375,171.23507690429688,
127.25391387939453,196.1246337890625,
132.71905517578125,219.9093475341797,
143.28582763671875,239.83843994140625,
160.65306091308594,255.4136199951172,
181.8059844970703,265.3527526855469,
204.76699829101562,270.7370910644531,
225.48361206054688,270.6556396484375,
244.03138732910156,266.2983093261719,
258.584228515625,255.3411407470703,
271.3825378417969,242.73121643066406,
280.4598693847656,225.84339904785156,
285.1283874511719,208.55967712402344,
288.0639953613281,190.77386474609375,
290.3627014160156,171.89169311523438,
290.9095458984375,153.45741271972656,
152.93716430664062,128.32077026367188,
165.29052734375,115.5582504272461,
183.6886444091797,109.40174865722656,
202.46786499023438,110.64891815185547,
219.27804565429688,116.7735595703125,
244.44252014160156,119.06043243408203,
255.78424072265625,114.49869537353516,
268.59228515625,112.10626983642578,
280.8753356933594,114.99333953857422,
287.51318359375,125.7607421875,
231.8317108154297,138.36712646484375,
233.06515502929688,151.42579650878906,
234.6032257080078,164.2757568359375,
236.06712341308594,178.01083374023438,
215.43258666992188,194.73851013183594,
224.14337158203125,195.1230010986328,
232.63107299804688,195.54652404785156,
240.54017639160156,194.6645050048828,
247.60592651367188,192.76145935058594,
172.05079650878906,143.7479248046875,
182.2053680419922,138.9701385498047,
193.22218322753906,139.02774047851562,
202.4113311767578,144.68328857421875,
192.6529541015625,147.1596221923828,
181.61724853515625,147.0735626220703,
248.09107971191406,144.38681030273438,
257.35986328125,138.5678253173828,
267.6141052246094,138.98599243164062,
275.46630859375,143.55364990234375,
267.6596984863281,147.04428100585938,
257.27349853515625,146.8084716796875,
198.30194091796875,227.57125854492188,
212.1643524169922,218.2462921142578,
224.1383056640625,212.0890655517578,
231.8486328125,213.53465270996094,
237.8422088623047,211.30331420898438,
245.1004638671875,216.2623291015625,
249.8398895263672,224.580078125,
244.25782775878906,229.83468627929688,
237.58644104003906,232.13621520996094,
230.9969940185547,233.09327697753906,
223.1403350830078,233.4626007080078,
211.44244384765625,232.74188232421875,
203.00332641601562,226.2673797607422,
223.9889373779297,220.65869140625,
231.8926239013672,220.7661895751953,
237.97618103027344,219.81866455078125,
246.12008666992188,223.72213745117188,
237.40011596679688,220.69613647460938,
231.07579040527344,221.9497528076172,
223.5220184326172,222.2406768798828,
