91.68048858642578,170.0580291748047,
94.89787292480469,198.06466674804688,
99.65090942382812,225.49993896484375,
103.31909942626953,252.80410766601562,
110.48284149169922,279.60614013671875,
124.62625122070312,304.224365234375,
142.29022216796875,325.5497131347656,
164.90615844726562,340.3243713378906,
193.20755004882812,344.5565490722656,
223.68394470214844,341.37164306640625,
250.50399780273438,327.45184326171875,
274.12811279296875,307.1199951171875,
292.15643310546875,282.65704345703125,
301.6018371582031,254.5679473876953,
305.15557861328125,225.89976501464844,
307.3996276855469,195.6240997314453,
307.4381103515625,164.69166564941406,
108.74565887451172,146.64195251464844,
118.57501220703125,131.48568725585938,
135.7158203125,126.47911071777344,
155.19229125976562,127.06890106201172,
173.53280639648438,130.94911193847656,
204.04466247558594,131.01646423339844,
223.53875732421875,125.63826751708984,
243.30218505859375,124.34760284423828,
263.1623840332031,128.11911010742188,
278.03057861328125,140.2000274658203,
188.89537048339844,157.6046142578125,
188.7053985595703,174.4519805908203,
188.34693908691406,191.09608459472656,
188.0939178466797,208.68072509765625,
168.04983520507812,229.7637939453125,
178.80593872070312,232.16943359375,
190.09121704101562,233.7147979736328,
201.95582580566406,232.03355407714844,
213.59315490722656,229.44493103027344,
129.36590576171875,165.4633331298828,
140.4557342529297,159.51715087890625,
153.24830627441406,159.0824737548828,
164.61569213867188,165.981201171875,
152.9553985595703,168.7366943359375,
140.45050048828125,169.1072540283203,
219.49668884277344,164.98150634765625,
231.31593322753906,157.98861694335938,
244.68228149414062,158.18360900878906,
256.7992858886719,163.93710327148438,
244.87428283691406,167.15805053710938,
231.57473754882812,167.2320098876953,
158.15711975097656,278.7032775878906,
169.32614135742188,266.2466125488281,
181.65634155273438,258.2442321777344,
191.00369262695312,260.9286193847656,
201.075439453125,257.9764404296875,
215.3308868408203,265.2135925292969,
229.3115692138672,276.6567077636719,
216.21324157714844,285.2268981933594,
202.84698486328125,288.9466857910156,
192.05567932128906,290.0086975097656,
181.8608856201172,289.5507507324219,
170.0839080810547,286.841796875,
163.86041259765625,277.3474426269531,
181.6481170654297,269.16033935546875,
191.27024841308594,270.31842041015625,
201.6476593017578,269.1448974609375,
222.55062866210938,275.45660400390625,
202.2461700439453,274.46063232421875,
191.75259399414062,275.33795166015625,
181.93446350097656,274.6387634277344,
