48.79334259033203,150.1374969482422,
50.66969299316406,178.73231506347656,
54.60516357421875,205.66358947753906,
62.020538330078125,231.7404327392578,
75.2310791015625,253.81031799316406,
95.60430145263672,270.9598388671875,
121.08650207519531,281.0820617675781,
147.35604858398438,286.3704833984375,
172.23883056640625,286.4243469238281,
195.40972900390625,283.84039306640625,
215.47235107421875,273.2257995605469,
232.38905334472656,258.8890380859375,
244.59249877929688,239.9468536376953,
250.4449462890625,218.5050506591797,
254.51600646972656,194.32716369628906,
257.53033447265625,170.23300170898438,
258.4455261230469,145.5232391357422,
78.49508666992188,117.09207916259766,
92.65550231933594,101.55790710449219,
113.26759338378906,93.75199127197266,
135.14273071289062,93.53860473632812,
156.74806213378906,100.01287841796875,
183.03082275390625,100.17752075195312,
201.64837646484375,95.22711944580078,
220.971923828125,95.29462432861328,
238.9151153564453,101.33808898925781,
248.9840545654297,115.73475646972656,
173.64572143554688,126.03951263427734,
175.2463836669922,140.63246154785156,
176.9893341064453,154.9239959716797,
178.77685546875,169.76588439941406,
151.24392700195312,192.4501953125,
163.4401092529297,193.47720336914062,
175.090576171875,195.11044311523438,
185.2081756591797,193.92001342773438,
195.17691040039062,192.1454620361328,
97.10881042480469,136.3419647216797,
108.72531127929688,127.99044036865234,
122.66239166259766,127.8220443725586,
135.70277404785156,136.42550659179688,
122.91957092285156,139.4039306640625,
108.96382141113281,139.81802368164062,
196.56455993652344,136.65000915527344,
208.9796600341797,127.4022216796875,
222.67160034179688,128.02928161621094,
233.37774658203125,136.2342529296875,
222.9582061767578,140.17691040039062,
208.87103271484375,139.63345336914062,
132.71546936035156,237.0768585205078,
148.74636840820312,221.29673767089844,
163.8990936279297,212.77716064453125,
174.58897399902344,215.81509399414062,
183.68331909179688,212.88088989257812,
195.39968872070312,220.52279663085938,
205.49493408203125,234.1506805419922,
194.98782348632812,239.2242431640625,
184.29112243652344,241.46302795410156,
174.5015411376953,242.30618286132812,
163.36328125,241.74574279785156,
149.22186279296875,240.44802856445312,
139.68504333496094,234.92727661132812,
163.93682861328125,227.21588134765625,
174.60215759277344,227.58377075195312,
184.02088928222656,227.09768676757812,
198.86233520507812,232.90655517578125,
183.87265014648438,226.06166076660156,
174.55836486816406,226.97930908203125,
164.09214782714844,227.17990112304688,
