120.82843780517578,189.4254913330078,
121.85771942138672,214.07113647460938,
124.07918548583984,239.74325561523438,
127.88043212890625,265.71514892578125,
139.00897216796875,288.8084716796875,
158.7349853515625,306.8277587890625,
184.8934326171875,317.9785461425781,
212.1324462890625,325.2787780761719,
239.83535766601562,327.2522888183594,
267.3403015136719,324.3433837890625,
292.0295715332031,316.27752685546875,
312.9447021484375,304.1143798828125,
327.8296203613281,286.0532531738281,
335.109375,262.6365966796875,
337.7216491699219,237.39901733398438,
339.0380859375,212.52915954589844,
338.8833923339844,189.4146270751953,
153.70579528808594,141.06362915039062,
167.19134521484375,125.89026641845703,
185.3843231201172,118.40364837646484,
205.55345153808594,117.86982727050781,
223.52024841308594,124.24967193603516,
251.91500854492188,124.3785629272461,
268.7555847167969,119.1754150390625,
286.62451171875,120.3785171508789,
302.4950866699219,127.84321594238281,
313.465576171875,140.99630737304688,
240.83702087402344,152.6571502685547,
242.15008544921875,164.7613067626953,
243.6288604736328,176.66563415527344,
244.77365112304688,189.68313598632812,
219.2205810546875,213.8153839111328,
230.52349853515625,216.1924285888672,
241.49020385742188,218.16612243652344,
251.4171142578125,217.15145874023438,
260.60400390625,215.3485107421875,
173.62582397460938,163.89205932617188,
185.08779907226562,157.98153686523438,
197.39198303222656,157.36395263671875,
208.4351348876953,164.6615753173828,
197.7205352783203,166.80996704101562,
185.2084503173828,166.6571807861328,
263.9151306152344,165.96865844726562,
275.72637939453125,159.71861267089844,
287.7542724609375,160.8092041015625,
297.8641052246094,167.97802734375,
287.66839599609375,169.313720703125,
275.82012939453125,168.8983612060547,
198.73963928222656,256.0610656738281,
215.62619018554688,241.0836181640625,
231.1464080810547,232.5971221923828,
240.53860473632812,235.3731689453125,
249.8486328125,233.69212341308594,
263.0745849609375,243.22109985351562,
275.5313415527344,258.8974914550781,
261.827392578125,262.6312255859375,
249.3330535888672,263.3165588378906,
238.89498901367188,264.0177001953125,
228.58811950683594,263.02642822265625,
214.671630859375,261.2283020019531,
205.01473999023438,254.89547729492188,
230.83535766601562,247.98426818847656,
240.35574340820312,248.80172729492188,
249.9647674560547,249.06338500976562,
268.40411376953125,256.8071594238281,
248.91720581054688,250.2989959716797,
239.13339233398438,250.40255737304688,
229.2982177734375,250.21755981445312,
