113.55796813964844,169.7855987548828,
116.41412353515625,193.8026580810547,
120.86254119873047,218.09165954589844,
124.41857147216797,243.5845489501953,
131.0776824951172,268.7792053222656,
146.65028381347656,291.00732421875,
170.16452026367188,307.616943359375,
198.22640991210938,316.6266784667969,
229.18856811523438,317.75274658203125,
259.7607116699219,313.38067626953125,
284.9053649902344,302.2701721191406,
304.9437255859375,284.3904113769531,
316.88409423828125,261.58782958984375,
321.9082336425781,236.07513427734375,
323.5540466308594,210.170654296875,
324.7425231933594,184.8690643310547,
323.83740234375,159.6811981201172,
135.43115234375,135.93531799316406,
145.74368286132812,119.33740997314453,
162.531494140625,109.9776840209961,
182.28585815429688,108.41534423828125,
200.9855194091797,112.87603759765625,
234.5377655029297,110.1445541381836,
252.11068725585938,104.3671875,
270.9117431640625,103.77887725830078,
288.0285949707031,110.99330139160156,
298.8236083984375,125.41650390625,
220.48861694335938,133.23516845703125,
221.90301513671875,146.07728576660156,
223.59349060058594,158.47605895996094,
225.20065307617188,172.17465209960938,
202.29641723632812,198.5556182861328,
213.00465393066406,200.43594360351562,
223.63851928710938,200.9873046875,
233.905029296875,199.14222717285156,
243.19412231445312,196.62144470214844,
156.72718811035156,149.91473388671875,
168.14535522460938,142.87197875976562,
180.5493927001953,141.3717498779297,
192.6938018798828,146.92063903808594,
181.32684326171875,150.23486328125,
168.99159240722656,151.57376098632812,
243.54881286621094,143.91563415527344,
255.7626495361328,137.08499145507812,
268.1403503417969,137.34886169433594,
279.3953552246094,143.1980438232422,
269.0704345703125,145.71853637695312,
256.6578063964844,145.8589630126953,
186.7512969970703,248.23065185546875,
200.7718963623047,234.64999389648438,
214.7795867919922,226.324951171875,
223.4230499267578,228.39039611816406,
232.46253967285156,225.56422424316406,
245.7095489501953,232.35789489746094,
258.46136474609375,243.85946655273438,
245.46192932128906,250.03468322753906,
233.35897827148438,252.1012725830078,
223.40040588378906,253.63330078125,
213.8511505126953,253.68087768554688,
200.65997314453125,252.5580596923828,
192.43270874023438,246.8423309326172,
214.87242126464844,239.11212158203125,
223.69276428222656,239.31678771972656,
233.19053649902344,238.35501098632812,
252.9039764404297,242.77964782714844,
232.338623046875,238.9165496826172,
222.78897094726562,240.9492950439453,
213.8197479248047,241.07379150390625,
