134.14768981933594,147.8556671142578,
131.4123077392578,172.84808349609375,
134.70758056640625,198.99896240234375,
141.63287353515625,221.8522491455078,
151.65481567382812,244.31787109375,
165.09588623046875,265.8470153808594,
181.1154327392578,281.397705078125,
199.16600036621094,292.64556884765625,
219.09722900390625,294.3034973144531,
242.37730407714844,292.6691589355469,
267.70733642578125,284.0702819824219,
291.5485534667969,270.3006286621094,
311.15985107421875,250.34573364257812,
324.5765075683594,225.3422088623047,
332.7687683105469,196.97787475585938,
337.9254455566406,166.58517456054688,
338.4052734375,136.23403930664062,
138.28138732910156,111.97164154052734,
146.61407470703125,99.71260833740234,
160.70614624023438,95.86203002929688,
176.10499572753906,96.34439086914062,
190.00930786132812,99.98867797851562,
222.8894805908203,95.65193939208984,
240.9121856689453,89.88909149169922,
260.8194274902344,89.43769073486328,
279.5929870605469,94.54381561279297,
295.5539855957031,105.44584655761719,
205.2217559814453,128.17909240722656,
204.0731964111328,145.63235473632812,
202.52369689941406,162.86109924316406,
201.1899871826172,180.4624481201172,
187.8632354736328,203.61709594726562,
196.967041015625,204.74803161621094,
206.07200622558594,205.14100646972656,
216.27505493164062,203.66453552246094,
226.99830627441406,202.2832794189453,
150.9878692626953,137.79295349121094,
160.8400115966797,130.19627380371094,
174.10037231445312,129.84475708007812,
183.8907012939453,138.5765838623047,
173.6165771484375,143.26365661621094,
160.8232421875,143.5038299560547,
242.91098022460938,134.5870819091797,
254.2209930419922,125.0940170288086,
267.7967834472656,125.31863403320312,
279.8580627441406,131.9891815185547,
268.8512878417969,137.17453002929688,
255.29214477539062,137.89747619628906,
186.48745727539062,249.62791442871094,
192.72581481933594,236.83934020996094,
201.25624084472656,228.03782653808594,
208.4081573486328,230.0818634033203,
217.06463623046875,226.5385284423828,
232.46994018554688,233.97213745117188,
249.04135131835938,244.96083068847656,
233.9204559326172,250.19073486328125,
221.14515686035156,251.3674774169922,
212.0981903076172,252.064453125,
204.3538818359375,252.82237243652344,
195.8274688720703,253.170166015625,
192.6058807373047,248.31820678710938,
202.1780242919922,240.6242218017578,
209.23228454589844,240.26670837402344,
218.21255493164062,238.88320922851562,
242.3356475830078,243.8163604736328,
219.2947235107422,236.1160125732422,
210.52377319335938,237.31399536132812,
203.3702850341797,236.74261474609375,
