105.31891632080078,165.61061096191406,
107.94003295898438,193.25205993652344,
113.04155731201172,221.25559997558594,
118.29008483886719,248.9998321533203,
126.87813568115234,275.7393493652344,
143.41458129882812,298.9790344238281,
166.8745574951172,316.592041015625,
195.2243194580078,326.5532531738281,
225.78782653808594,329.4290771484375,
256.1359558105469,324.8143005371094,
281.7084655761719,312.49664306640625,
302.57196044921875,293.05853271484375,
314.822509765625,268.2648010253906,
319.5582580566406,242.34033203125,
321.8802490234375,216.8335723876953,
323.1064758300781,190.9806365966797,
321.9035339355469,164.43997192382812,
133.5930938720703,132.3515167236328,
147.7040252685547,116.3447494506836,
166.88906860351562,109.43061828613281,
188.0236053466797,109.96147155761719,
206.7420654296875,116.4999008178711,
239.90957641601562,115.3451919555664,
257.2681884765625,109.6527099609375,
275.3182373046875,109.07852172851562,
292.0612487792969,116.00502014160156,
301.9600524902344,130.7747039794922,
224.0966033935547,136.4412841796875,
225.16473388671875,150.6095733642578,
226.3551788330078,164.1954803466797,
227.48526000976562,179.16981506347656,
204.48263549804688,204.2222442626953,
214.6826934814453,206.13336181640625,
225.07565307617188,207.10354614257812,
235.27577209472656,205.64682006835938,
244.3411407470703,203.56239318847656,
155.60015869140625,149.33697509765625,
167.56527709960938,142.70802307128906,
180.2964630126953,142.1637420654297,
193.3106689453125,148.2540740966797,
180.6180877685547,151.15077209472656,
167.80636596679688,152.07333374023438,
245.58966064453125,147.9290313720703,
258.0584716796875,140.74729919433594,
271.1784362792969,141.62548828125,
282.2206115722656,148.28823852539062,
271.5273742675781,150.75799560546875,
258.37274169921875,150.3484344482422,
187.40811157226562,255.31423950195312,
202.66148376464844,241.8187255859375,
216.63381958007812,233.5286407470703,
225.35409545898438,236.02105712890625,
234.58384704589844,232.88714599609375,
246.82229614257812,240.56214904785156,
258.4275817871094,252.64149475097656,
246.995361328125,258.06103515625,
235.69374084472656,259.8700256347656,
225.6803741455078,260.90283203125,
215.97132873535156,260.869384765625,
202.65919494628906,260.0830078125,
193.75863647460938,253.56138610839844,
216.54823303222656,246.14682006835938,
225.5305938720703,247.11476135253906,
235.04537963867188,245.60963439941406,
252.6376953125,251.36558532714844,
234.89675903320312,247.05450439453125,
225.16815185546875,248.5900115966797,
216.2335662841797,248.2245330810547,
