116.61878204345703,177.6737823486328,
119.04996490478516,212.30714416503906,
124.84431457519531,245.86050415039062,
132.63536071777344,276.7508544921875,
146.16049194335938,305.70159912109375,
167.4947509765625,331.2146911621094,
191.65538024902344,351.1883239746094,
217.86024475097656,365.7101745605469,
245.77867126464844,368.44610595703125,
273.7899169921875,361.81689453125,
295.6827392578125,344.7011413574219,
315.5417785644531,324.4215393066406,
332.0251159667969,298.6712646484375,
343.0058898925781,269.7940979003906,
350.307861328125,239.41770935058594,
354.623046875,209.46876525878906,
356.3916931152344,179.1321258544922,
148.54220581054688,138.4600067138672,
164.9781951904297,124.05675506591797,
186.26145935058594,119.68920135498047,
208.29676818847656,124.86997985839844,
227.85671997070312,134.3567657470703,
266.0642395019531,133.50729370117188,
283.4239501953125,124.96887969970703,
303.1480712890625,120.10965728759766,
322.43768310546875,125.18342590332031,
334.0325012207031,140.40562438964844,
248.60772705078125,163.10308837890625,
249.94729614257812,184.43975830078125,
251.35507202148438,205.5968475341797,
252.72079467773438,227.0113525390625,
220.61158752441406,245.43763732910156,
234.66741943359375,248.7200164794922,
248.30621337890625,251.83721923828125,
261.17657470703125,249.4489288330078,
272.5039367675781,245.9861602783203,
170.88772583007812,168.48008728027344,
183.8242950439453,161.82052612304688,
198.53811645507812,162.3973846435547,
209.93740844726562,171.1768035888672,
198.25352478027344,173.19517517089844,
183.5306396484375,172.82794189453125,
275.1357727050781,171.61407470703125,
288.081298828125,162.5780792236328,
302.21636962890625,162.47560119628906,
313.69708251953125,169.5644073486328,
302.9271240234375,173.39456176757812,
288.9924621582031,173.772216796875,
202.25274658203125,297.11370849609375,
217.2298583984375,279.3428955078125,
233.7677764892578,270.5758361816406,
246.23260498046875,274.0124816894531,
259.3086853027344,271.3663024902344,
273.93701171875,280.67926025390625,
284.3108825683594,296.7170104980469,
273.27838134765625,309.7716064453125,
259.9317626953125,316.0910339355469,
245.81637573242188,317.39703369140625,
232.4542694091797,316.1654357910156,
216.275146484375,310.2532043457031,
210.39996337890625,296.03533935546875,
233.70606994628906,285.1048889160156,
246.2014617919922,285.8580017089844,
259.26568603515625,285.2368469238281,
276.29278564453125,296.004638671875,
259.1497802734375,298.8022766113281,
245.9824981689453,300.6540832519531,
233.27786254882812,299.8294677734375,
