98.21432495117188,189.48504638671875,
98.25935363769531,211.24295043945312,
100.7564697265625,233.01373291015625,
106.35333251953125,253.35348510742188,
116.12025451660156,271.8993835449219,
130.0888671875,288.2281494140625,
147.82904052734375,300.333984375,
167.40475463867188,308.3091735839844,
189.39088439941406,308.9770812988281,
211.43722534179688,306.5109558105469,
233.3826904296875,296.64630126953125,
254.50653076171875,283.3851318359375,
271.5220947265625,265.3623352050781,
281.5602111816406,241.87112426757812,
286.62750244140625,216.49722290039062,
289.968017578125,190.4065399169922,
290.6630554199219,163.7896728515625,
110.12445831298828,148.54672241210938,
118.57762908935547,134.86192321777344,
132.88864135742188,126.56954193115234,
149.13107299804688,124.34770965576172,
165.66917419433594,127.27071380615234,
192.73280334472656,122.61981201171875,
209.56561279296875,116.18193054199219,
227.8218231201172,114.30615997314453,
245.79144287109375,118.41342163085938,
259.4242248535156,130.24517822265625,
180.9720458984375,156.155517578125,
181.47059631347656,171.12454223632812,
181.8195037841797,185.50877380371094,
182.02313232421875,200.64218139648438,
165.34475708007812,222.18829345703125,
174.82078552246094,223.57582092285156,
184.4071807861328,224.02755737304688,
194.30917358398438,221.21109008789062,
204.34429931640625,218.09616088867188,
124.72761535644531,171.50775146484375,
133.26007080078125,163.0400848388672,
144.89425659179688,161.5749969482422,
156.5979766845703,168.787109375,
145.3953094482422,171.74066162109375,
133.8603973388672,173.10594177246094,
211.91506958007812,161.86871337890625,
221.73797607421875,152.2550811767578,
234.11935424804688,150.92889404296875,
246.02935791015625,156.9890594482422,
235.46258544921875,161.06439208984375,
223.0819854736328,162.2069854736328,
154.8025360107422,263.5268859863281,
164.55038452148438,250.05465698242188,
176.97254943847656,241.70237731933594,
185.6773223876953,243.17835998535156,
193.39382934570312,240.08824157714844,
207.02328491210938,246.23887634277344,
223.37075805664062,257.36865234375,
208.60829162597656,265.0713806152344,
196.0657958984375,267.1254577636719,
187.32948303222656,268.53277587890625,
178.10702514648438,268.51495361328125,
166.6411590576172,267.95477294921875,
160.82501220703125,261.6878967285156,
177.78390502929688,255.2191925048828,
186.42506408691406,254.67718505859375,
194.6378631591797,253.5445556640625,
216.84500122070312,256.8122863769531,
194.76687622070312,253.960205078125,
186.4278564453125,254.38320922851562,
177.86830139160156,255.2624053955078,
