131.58837890625,173.0191192626953,
129.67849731445312,191.5894775390625,
131.0379638671875,210.37689208984375,
134.5457305908203,229.74679565429688,
140.39364624023438,249.13124084472656,
152.3803253173828,265.7921447753906,
169.1002960205078,277.1378173828125,
187.9310302734375,285.4709167480469,
208.25924682617188,287.45697021484375,
230.3682098388672,286.7522888183594,
254.808837890625,282.018310546875,
277.73321533203125,273.0966491699219,
294.93170166015625,258.4649658203125,
303.6067810058594,239.6903533935547,
307.51220703125,218.9900360107422,
309.6667175292969,197.58094787597656,
310.3211975097656,176.70249938964844,
144.87310791015625,139.20858764648438,
153.45849609375,127.60759735107422,
166.08998107910156,122.550048828125,
179.29794311523438,123.01383209228516,
191.24856567382812,127.3823013305664,
225.112548828125,124.82360076904297,
240.3609161376953,119.7000961303711,
256.3249206542969,119.6814193725586,
271.2657775878906,126.62300872802734,
282.27032470703125,138.3005828857422,
206.92181396484375,148.29107666015625,
205.2777557373047,157.69309997558594,
203.40673828125,166.46337890625,
201.7125244140625,175.9373779296875,
189.9322967529297,199.8921661376953,
197.2297821044922,200.65008544921875,
204.21385192871094,200.8768310546875,
212.17019653320312,200.29620361328125,
220.39207458496094,200.02098083496094,
158.47842407226562,157.9160614013672,
167.03793334960938,149.6826171875,
177.53555297851562,149.50506591796875,
184.69271850585938,158.38551330566406,
176.88272094726562,159.35147094726562,
166.58518981933594,159.20391845703125,
236.3416290283203,157.62684631347656,
245.0731964111328,148.3843994140625,
255.8162078857422,148.71055603027344,
264.6105041503906,157.3885498046875,
256.234375,158.52320861816406,
245.63462829589844,158.63963317871094,
181.59085083007812,239.69175720214844,
187.61959838867188,223.1673126220703,
197.90771484375,215.7339630126953,
205.27188110351562,217.89285278320312,
214.15232849121094,215.59295654296875,
227.66419982910156,223.10360717773438,
240.23300170898438,239.2776336669922,
227.98687744140625,243.59022521972656,
215.90249633789062,245.6356964111328,
206.30960083007812,246.07017517089844,
198.28677368164062,245.6676788330078,
188.6409912109375,243.0933837890625,
187.22633361816406,237.4910888671875,
198.0130615234375,225.76869201660156,
205.6756591796875,225.90512084960938,
214.5723114013672,225.68475341796875,
234.37588500976562,236.8791046142578,
215.01992797851562,234.8235626220703,
205.95852661132812,234.96990966796875,
198.29978942871094,234.5554962158203,
