124.53040313720703,160.51239013671875,
126.53360748291016,187.13658142089844,
130.24179077148438,213.99203491210938,
134.28114318847656,241.63436889648438,
141.3092041015625,269.04498291015625,
155.28575134277344,293.93017578125,
173.1413116455078,316.2506408691406,
195.40570068359375,332.0312194824219,
223.529296875,336.06884765625,
254.01625061035156,332.5567626953125,
280.2578125,318.3733215332031,
303.643310546875,297.7484436035156,
322.51898193359375,273.5450744628906,
332.7301025390625,245.62611389160156,
337.411865234375,216.84561157226562,
340.2527770996094,186.3421173095703,
340.57421875,154.86953735351562,
141.05679321289062,134.68455505371094,
152.02748107910156,121.7935791015625,
168.58074951171875,116.6238784790039,
186.86309814453125,116.7881851196289,
204.12710571289062,120.42913055419922,
235.0311737060547,120.22216796875,
253.6831817626953,115.26717376708984,
273.10821533203125,113.83061981201172,
292.6197509765625,118.156982421875,
308.9447021484375,129.0762481689453,
219.27622985839844,146.55174255371094,
218.54776000976562,163.30174255371094,
217.63299560546875,179.64846801757812,
217.0107421875,197.1165008544922,
198.76736450195312,219.7210235595703,
208.84828186035156,222.2069549560547,
219.5838623046875,223.61282348632812,
231.2779998779297,221.69764709472656,
242.9236602783203,218.9182891845703,
160.7108612060547,155.35293579101562,
172.42100524902344,149.85836791992188,
185.19656372070312,149.31695556640625,
196.2750244140625,156.3267822265625,
184.6383514404297,158.78773498535156,
172.0524139404297,159.0446319580078,
250.09559631347656,154.9371795654297,
261.90374755859375,147.4211883544922,
275.1369934082031,147.4600372314453,
287.45849609375,152.91635131835938,
275.8392333984375,156.34347534179688,
262.74005126953125,156.73851013183594,
188.70181274414062,267.2201843261719,
200.77801513671875,256.54840087890625,
212.65570068359375,248.1146697998047,
221.68714904785156,250.49444580078125,
231.330810546875,247.0649871826172,
246.40292358398438,254.40133666992188,
261.2572021484375,264.7283630371094,
247.4805450439453,273.5562438964844,
233.52647399902344,278.75958251953125,
223.05955505371094,280.0559997558594,
213.1844940185547,279.80804443359375,
201.62506103515625,276.8481140136719,
194.36172485351562,266.7633056640625,
212.69039916992188,261.46002197265625,
222.1807403564453,261.9276428222656,
232.2425537109375,260.4621887207031,
254.79086303710938,264.356689453125,
232.62779235839844,262.59124755859375,
222.5265655517578,264.10968017578125,
212.99136352539062,263.84344482421875,
