106.08798217773438,208.775146484375,
112.08245086669922,237.13339233398438,
121.0776596069336,264.9862365722656,
130.4617462158203,290.43798828125,
146.04977416992188,313.293701171875,
169.36997985839844,328.3624267578125,
196.81407165527344,337.00286865234375,
224.95188903808594,339.18353271484375,
251.1969451904297,333.2706298828125,
275.2457275390625,325.2386474609375,
293.0394287109375,310.4874267578125,
306.3865966796875,291.6014099121094,
313.63995361328125,270.30804443359375,
316.189208984375,246.59765625,
315.6387939453125,222.36614990234375,
311.58489990234375,199.36663818359375,
306.2879638671875,176.7086181640625,
128.17315673828125,174.23716735839844,
138.4186553955078,156.28688049316406,
157.39105224609375,147.11624145507812,
179.54112243652344,146.769287109375,
200.45635986328125,152.82398986816406,
232.93505859375,145.22711181640625,
248.20460510253906,135.12646484375,
264.9443054199219,130.75877380371094,
281.9854736328125,133.71090698242188,
291.650146484375,147.9970703125,
222.52569580078125,170.51034545898438,
227.19850158691406,185.08287048339844,
232.0710906982422,198.8931884765625,
237.01486206054688,213.80648803710938,
213.1753692626953,237.48793029785156,
225.4321746826172,237.4663543701172,
236.9341278076172,237.1801300048828,
245.92538452148438,233.15261840820312,
254.05072021484375,229.20875549316406,
155.8463897705078,187.95391845703125,
167.00985717773438,177.91725158691406,
181.3201446533203,175.24496459960938,
193.508056640625,183.9977264404297,
183.28575134277344,187.09774780273438,
168.76119995117188,189.22499084472656,
243.96693420410156,174.4008331298828,
253.82443237304688,162.4652099609375,
266.0310363769531,159.81214904785156,
275.43475341796875,166.81887817382812,
269.3499450683594,170.82217407226562,
257.19024658203125,173.2196502685547,
199.0077667236328,280.5360412597656,
213.27224731445312,264.6319885253906,
228.60423278808594,255.12416076660156,
238.64564514160156,256.02252197265625,
248.41050720214844,251.27093505859375,
260.7907409667969,254.53724670410156,
273.451171875,262.2724609375,
264.2705383300781,271.1687927246094,
255.14064025878906,277.5113830566406,
243.91697692871094,281.47576904296875,
233.7154083251953,283.44561767578125,
216.99220275878906,284.02532958984375,
205.65792846679688,278.1802673339844,
230.5087432861328,266.0615539550781,
240.31768798828125,264.4068298339844,
250.70169067382812,261.5202331542969,
267.329345703125,263.0323791503906,
251.63221740722656,264.5108947753906,
241.29208374023438,268.498291015625,
231.44290161132812,269.9681091308594,
