124.92642974853516,166.52015686035156,
125.22876739501953,192.35543823242188,
128.94297790527344,218.2197265625,
134.46426391601562,243.4366455078125,
144.07894897460938,266.2315979003906,
159.87184143066406,286.659912109375,
178.94293212890625,305.0788879394531,
199.9295654296875,316.5323181152344,
221.62310791015625,319.23187255859375,
241.65711975097656,315.1434020996094,
260.5937194824219,302.56591796875,
277.2861633300781,286.6886291503906,
291.5014953613281,266.77044677734375,
301.11920166015625,244.3409423828125,
308.86053466796875,220.70144653320312,
314.5818176269531,196.96424865722656,
316.3767395019531,172.1359100341797,
149.51181030273438,143.1887664794922,
162.71791076660156,133.8131866455078,
178.8294677734375,130.6217041015625,
195.18673706054688,133.609619140625,
209.9830780029297,140.41412353515625,
247.79229736328125,140.35406494140625,
260.9786376953125,134.3985595703125,
275.5517883300781,133.02125549316406,
288.8785095214844,137.52940368652344,
298.66705322265625,146.7559051513672,
229.6055908203125,164.69561767578125,
229.797119140625,181.5449981689453,
230.1248321533203,198.1074676513672,
230.3035125732422,214.8911895751953,
207.4780731201172,228.6572265625,
217.5363006591797,230.78321838378906,
226.9063262939453,232.44082641601562,
235.8611602783203,231.30076599121094,
243.7889862060547,229.4625701904297,
167.286376953125,168.3262939453125,
178.50265502929688,163.9011993408203,
189.7369842529297,164.9369354248047,
198.445556640625,172.2948455810547,
188.69078063964844,173.72955322265625,
177.49154663085938,172.42572021484375,
251.72085571289062,173.9624786376953,
261.6117248535156,166.497314453125,
271.92889404296875,166.747314453125,
280.8204040527344,172.30101013183594,
272.6505126953125,175.43960571289062,
262.16156005859375,175.84259033203125,
186.5594940185547,257.57623291015625,
200.15188598632812,247.4013671875,
215.042236328125,242.86386108398438,
224.2730712890625,245.71987915039062,
234.37571716308594,243.93588256835938,
247.1910858154297,249.33522033691406,
255.75485229492188,259.6629333496094,
245.5323944091797,275.3846740722656,
233.9041290283203,281.73779296875,
222.92921447753906,282.6636962890625,
212.78025817871094,281.353759765625,
198.57456970214844,274.11114501953125,
192.7852020263672,257.7615966796875,
214.5507049560547,252.45445251464844,
223.97100830078125,253.77874755859375,
234.1402130126953,253.3137664794922,
249.85340881347656,259.90057373046875,
233.9419403076172,267.6773376464844,
223.50262451171875,269.027587890625,
214.04603576660156,267.6864318847656,
