124.6051025390625,173.38519287109375,
125.75462341308594,199.01979064941406,
130.89480590820312,224.25445556640625,
139.6661376953125,248.580322265625,
152.80308532714844,269.6024475097656,
171.25254821777344,287.71282958984375,
190.60610961914062,303.2896728515625,
209.1621856689453,315.0198669433594,
227.90301513671875,317.49334716796875,
245.46182250976562,313.2662658691406,
262.43011474609375,299.46990966796875,
281.2129821777344,282.72027587890625,
298.73150634765625,262.8292541503906,
311.0513610839844,239.97933959960938,
317.85882568359375,213.78643798828125,
321.34033203125,187.76681518554688,
321.07257080078125,160.5484161376953,
143.631591796875,151.7469024658203,
155.9646453857422,142.2589111328125,
171.29473876953125,137.70083618164062,
187.43423461914062,138.97251892089844,
202.491455078125,145.0265350341797,
239.15611267089844,141.41346740722656,
252.89637756347656,133.5411376953125,
268.56890869140625,129.63516235351562,
284.3829650878906,132.0370635986328,
297.03814697265625,140.2635040283203,
222.3509063720703,169.1809539794922,
223.1992950439453,185.69677734375,
224.05331420898438,201.65599060058594,
224.70574951171875,217.7966766357422,
206.5286407470703,233.4622344970703,
216.3033447265625,234.56581115722656,
226.0511474609375,235.625,
235.28440856933594,233.13958740234375,
244.25558471679688,230.2957305908203,
162.3317413330078,176.05918884277344,
172.8076629638672,170.39254760742188,
184.15956115722656,169.9610595703125,
193.645263671875,177.08587646484375,
183.79507446289062,179.23167419433594,
172.5325927734375,178.82977294921875,
250.59068298339844,173.1071319580078,
259.50238037109375,164.9591827392578,
270.37664794921875,163.94386291503906,
281.05718994140625,168.1110076904297,
271.90057373046875,172.2766876220703,
261.0353698730469,173.71058654785156,
186.3441925048828,257.6626892089844,
199.39137268066406,250.07293701171875,
215.8463592529297,245.7202606201172,
226.00369262695312,247.351806640625,
236.00953674316406,244.84609985351562,
250.80670166015625,247.36309814453125,
264.3011779785156,253.15548706054688,
251.72779846191406,274.173828125,
238.52639770507812,284.16290283203125,
227.5503692626953,286.153564453125,
216.1465606689453,285.5019836425781,
200.3931121826172,276.5085144042969,
192.78575134277344,258.4382629394531,
216.1061553955078,254.5987091064453,
226.43768310546875,255.03683471679688,
236.58517456054688,253.4588623046875,
258.024658203125,254.81097412109375,
237.26205444335938,270.4519348144531,
226.86630249023438,272.724853515625,
216.3008270263672,271.772705078125,
