76.9195785522461,171.46263122558594,
79.33610534667969,207.01368713378906,
86.15454864501953,244.67503356933594,
97.05126953125,279.90252685546875,
116.54532623291016,310.89263916015625,
145.9683837890625,333.2604064941406,
182.3279266357422,348.3085632324219,
219.2985382080078,355.16650390625,
254.0320281982422,353.5003356933594,
280.6585998535156,344.94134521484375,
299.88055419921875,323.523681640625,
316.02728271484375,299.46142578125,
327.0060729980469,271.3774719238281,
331.932373046875,243.13616943359375,
335.888427734375,217.0549774169922,
336.0758972167969,191.7666015625,
331.3182373046875,168.8058624267578,
132.03213500976562,124.85293579101562,
157.66973876953125,111.050537109375,
184.88414001464844,105.47488403320312,
212.0880889892578,107.4645004272461,
235.24822998046875,118.55782318115234,
271.330810546875,117.88508605957031,
285.5503234863281,109.5798110961914,
303.37109375,106.36300659179688,
319.3822326660156,108.82874298095703,
328.59112548828125,120.1668472290039,
256.1556701660156,147.99362182617188,
260.22265625,168.1885223388672,
265.2040710449219,188.15272521972656,
270.1351623535156,208.6385955810547,
235.9123077392578,237.2276153564453,
249.0794677734375,237.65113830566406,
261.5975341796875,238.0119171142578,
272.20166015625,236.51727294921875,
281.7564392089844,232.80917358398438,
159.59176635742188,154.36146545410156,
175.82754516601562,146.53904724121094,
193.70420837402344,146.95191955566406,
209.9073028564453,158.72776794433594,
193.2081756591797,163.22219848632812,
174.6942901611328,162.76016235351562,
275.0149841308594,157.10989379882812,
287.8645935058594,144.69140625,
303.88861083984375,143.41775512695312,
314.71929931640625,150.8051300048828,
305.8299255371094,159.9605712890625,
289.877197265625,161.07952880859375,
207.36158752441406,285.77557373046875,
232.99569702148438,274.4042053222656,
252.20541381835938,264.78411865234375,
262.3416748046875,267.46990966796875,
270.60662841796875,263.2557373046875,
279.62939453125,270.88568115234375,
286.030029296875,279.90203857421875,
278.9385070800781,287.13128662109375,
270.91778564453125,291.3901062011719,
261.61273193359375,293.01202392578125,
251.36424255371094,294.1146240234375,
232.03236389160156,293.5901794433594,
215.2001953125,285.654052734375,
252.24374389648438,280.86865234375,
262.2421875,280.546630859375,
270.9031066894531,278.6666259765625,
280.04827880859375,280.46112060546875,
270.3893127441406,274.6441650390625,
261.6717224121094,277.1048583984375,
251.82164001464844,277.55853271484375,
