79.44387817382812,141.88475036621094,
79.64999389648438,166.2033233642578,
84.1216049194336,190.32347106933594,
89.05269622802734,213.12704467773438,
98.64667510986328,234.7714385986328,
114.88660430908203,252.59017944335938,
133.97137451171875,265.89959716796875,
154.28536987304688,277.1260681152344,
175.60594177246094,280.4454345703125,
196.50148010253906,276.80096435546875,
216.09475708007812,265.99822998046875,
235.66978454589844,252.9650115966797,
251.97154235839844,235.05352783203125,
262.6995544433594,213.317138671875,
268.7184143066406,190.45091247558594,
273.40765380859375,166.560791015625,
274.28851318359375,142.4079132080078,
99.27962493896484,122.50616455078125,
111.7063217163086,111.63333892822266,
129.59437561035156,109.4182357788086,
147.27090454101562,112.83995819091797,
163.67718505859375,118.99075317382812,
192.0679931640625,119.10417938232422,
208.70909118652344,113.46725463867188,
225.73431396484375,110.62488555908203,
242.8696746826172,112.23834228515625,
255.89749145507812,122.13042449951172,
177.7555694580078,140.41616821289062,
177.97320556640625,153.746826171875,
178.2310333251953,166.67874145507812,
178.56993103027344,180.46470642089844,
159.16790771484375,198.77320861816406,
168.76307678222656,199.69085693359375,
178.11227416992188,200.44235229492188,
187.34068298339844,199.53648376464844,
196.3866424560547,198.25802612304688,
117.1318130493164,145.0475616455078,
128.9796142578125,141.47434997558594,
141.21243286132812,141.65805053710938,
151.06324768066406,148.08534240722656,
140.044921875,151.20648193359375,
128.0980224609375,150.74729919433594,
204.05833435058594,147.9310760498047,
214.55763244628906,141.86175537109375,
226.3223114013672,141.68234252929688,
237.55343627929688,145.1303253173828,
227.18051147460938,149.9855499267578,
215.21640014648438,150.68392944335938,
144.73023986816406,234.58560180664062,
156.81214904785156,222.85281372070312,
169.61370849609375,215.51817321777344,
177.74832153320312,217.58590698242188,
186.2449493408203,215.1146697998047,
197.9710693359375,221.77838134765625,
208.87974548339844,233.21217346191406,
197.94212341308594,242.7696075439453,
187.14195251464844,246.3971710205078,
178.1678924560547,247.20489501953125,
169.06088256835938,247.28414916992188,
156.43795776367188,244.45555114746094,
151.32058715820312,233.83152770996094,
169.34274291992188,226.6722412109375,
177.64453125,226.7974395751953,
186.2666778564453,226.1666259765625,
202.34925842285156,232.73208618164062,
186.72100830078125,231.8852996826172,
178.16310119628906,232.62109375,
169.5932159423828,232.46485900878906,
