116.89942169189453,160.3887176513672,
118.72814178466797,188.13319396972656,
122.79249572753906,215.93516540527344,
126.29759979248047,243.32455444335938,
133.117919921875,269.7598876953125,
147.85574340820312,293.0065612792969,
166.60382080078125,313.2520751953125,
190.22096252441406,325.5118713378906,
217.56527709960938,328.7125244140625,
246.98184204101562,325.0769958496094,
273.5016174316406,312.38409423828125,
297.1867980957031,294.18603515625,
316.0417175292969,271.7296447753906,
325.6778259277344,244.44410705566406,
329.0970764160156,216.4161834716797,
331.90777587890625,186.12794494628906,
332.3764343261719,155.53163146972656,
135.2416534423828,132.77867126464844,
145.04164123535156,117.05119323730469,
162.49317932128906,110.97265625,
182.20632934570312,110.86487579345703,
201.56126403808594,114.3648910522461,
230.91146850585938,114.20125579833984,
250.7591094970703,108.42927551269531,
271.1717834472656,107.33324432373047,
290.6012268066406,112.70764923095703,
304.2174987792969,126.93104553222656,
216.1053009033203,139.57357788085938,
215.6521759033203,155.3386993408203,
215.00332641601562,170.8154754638672,
214.56350708007812,187.49122619628906,
196.0082550048828,210.7777862548828,
206.40167236328125,212.310546875,
217.235107421875,213.0858917236328,
228.46400451660156,211.3332977294922,
239.39181518554688,208.65975952148438,
156.21327209472656,152.127197265625,
167.29598999023438,145.44798278808594,
179.65603637695312,144.59304809570312,
190.51258850097656,151.245849609375,
179.5718536376953,153.75611877441406,
167.53515625,154.43389892578125,
246.54669189453125,148.79586791992188,
257.99835205078125,141.10508728027344,
271.0157165527344,141.12269592285156,
283.0402526855469,147.0009307861328,
271.55279541015625,149.6824951171875,
258.6670227050781,149.99513244628906,
184.73477172851562,260.28485107421875,
196.90029907226562,247.52886962890625,
209.44068908691406,238.2199249267578,
218.1229248046875,240.62303161621094,
226.9595489501953,237.25732421875,
241.53643798828125,244.91485595703125,
255.93453979492188,256.83197021484375,
242.63973999023438,264.892822265625,
229.44114685058594,269.58282470703125,
219.9071502685547,270.66448974609375,
210.37057495117188,271.02935791015625,
198.1178436279297,268.864990234375,
190.57017517089844,259.1343078613281,
209.63731384277344,251.933837890625,
218.61630249023438,252.360107421875,
227.81402587890625,250.8730010986328,
249.31832885742188,255.92843627929688,
228.3329620361328,253.05557250976562,
219.0310821533203,254.31544494628906,
209.9916534423828,254.27529907226562,
