124.4251937866211,174.66305541992188,
125.1099624633789,199.9024200439453,
128.50584411621094,225.4161834716797,
134.29678344726562,251.31263732910156,
144.82859802246094,274.9112548828125,
162.18768310546875,294.70770263671875,
183.197265625,311.84625244140625,
204.69747924804688,323.4158630371094,
227.71165466308594,326.57806396484375,
250.9896240234375,323.042724609375,
271.5383605957031,310.49102783203125,
288.2532043457031,293.7909851074219,
301.6365051269531,273.0596618652344,
309.5534973144531,250.08277893066406,
313.9205017089844,224.69422912597656,
316.00555419921875,198.85935974121094,
315.89959716796875,172.78512573242188,
144.59854125976562,151.2923583984375,
156.49261474609375,138.3015899658203,
174.62513732910156,135.18353271484375,
193.06704711914062,140.13916015625,
209.28822326660156,148.23471069335938,
240.58106994628906,147.1664276123047,
255.6761016845703,140.3843231201172,
272.2846374511719,136.6051025390625,
288.7176513671875,139.3647918701172,
298.5538330078125,150.94898986816406,
225.74700927734375,169.56475830078125,
226.67250061035156,185.66249084472656,
227.7779083251953,201.72808837890625,
228.8435821533203,218.25474548339844,
203.03878784179688,232.72344970703125,
214.94647216796875,235.88658142089844,
226.5019989013672,237.86514282226562,
237.2843475341797,235.825927734375,
247.34825134277344,232.90731811523438,
163.60003662109375,170.8175506591797,
173.90284729003906,166.20114135742188,
186.2209014892578,166.8534698486328,
197.0009765625,174.73629760742188,
185.8790740966797,176.3419952392578,
173.56178283691406,176.10214233398438,
248.08360290527344,175.19760131835938,
258.62286376953125,167.64871215820312,
270.5578308105469,167.3948516845703,
280.373291015625,171.9044189453125,
271.610107421875,176.7663116455078,
259.5868835449219,177.14952087402344,
190.2888641357422,268.8895263671875,
204.0223846435547,261.18853759765625,
216.92555236816406,256.0118713378906,
225.18231201171875,258.5924072265625,
234.1287078857422,255.9899139404297,
246.04563903808594,261.6963806152344,
258.1194763183594,268.75323486328125,
245.9308319091797,275.0693359375,
234.56602478027344,277.4527893066406,
225.1805877685547,278.11956787109375,
216.04188537597656,277.63470458984375,
203.9217987060547,274.8905029296875,
196.41818237304688,268.4569091796875,
216.7363739013672,266.3230285644531,
225.24195861816406,267.1382141113281,
234.27967834472656,266.4705810546875,
252.92042541503906,268.30950927734375,
233.92982482910156,265.2881164550781,
224.98532104492188,266.0334167480469,
216.51231384277344,265.5906982421875,
