114.62974548339844,151.9872283935547,
112.88296508789062,187.2528839111328,
114.77757263183594,222.4076690673828,
120.93042755126953,255.5169677734375,
136.17822265625,284.8941650390625,
158.98602294921875,308.5887145996094,
182.12835693359375,328.9758605957031,
206.2869110107422,343.37152099609375,
231.8952178955078,348.8448486328125,
256.5865173339844,345.7031555175781,
277.5517272949219,329.2511291503906,
296.8270263671875,310.076904296875,
313.4646911621094,286.9430236816406,
325.4661560058594,261.8234558105469,
334.1642150878906,234.87918090820312,
339.956298828125,207.10108947753906,
342.0484313964844,179.51739501953125,
159.59718322753906,124.94192504882812,
178.5612335205078,111.34857940673828,
202.59359741210938,108.5807876586914,
224.8501434326172,114.73081970214844,
244.482177734375,126.5858383178711,
273.8776550292969,130.3019561767578,
291.4481201171875,126.43017578125,
309.4442138671875,127.40848541259766,
325.1246032714844,134.6439666748047,
331.38385009765625,150.8977813720703,
258.5845031738281,157.26268005371094,
258.711669921875,179.1935577392578,
258.98919677734375,200.38638305664062,
258.9435729980469,222.2803192138672,
224.7520294189453,235.36883544921875,
237.46914672851562,239.4142608642578,
250.31141662597656,243.28919982910156,
262.1653747558594,242.90147399902344,
273.0030517578125,241.13009643554688,
180.2882843017578,151.7454376220703,
194.82000732421875,148.46876525878906,
208.55645751953125,150.67855834960938,
219.43142700195312,161.0814971923828,
206.7693634033203,161.4972381591797,
192.7238311767578,159.0137481689453,
277.81805419921875,169.77438354492188,
290.6625671386719,163.49732971191406,
303.40966796875,164.66574096679688,
312.6624450683594,171.540283203125,
302.6541442871094,175.1392364501953,
289.85577392578125,173.64537048339844,
199.18841552734375,275.45086669921875,
218.55841064453125,266.4697570800781,
235.42881774902344,260.8843688964844,
246.81517028808594,265.9087219238281,
258.876953125,263.970703125,
268.47637939453125,272.25897216796875,
274.822509765625,284.1351623535156,
265.5946044921875,292.4447937011719,
255.75958251953125,296.1816101074219,
242.807861328125,295.9596252441406,
230.073486328125,293.6388854980469,
215.7755584716797,287.47991943359375,
206.75340270996094,276.28729248046875,
233.61448669433594,275.1473693847656,
245.28033447265625,276.93896484375,
257.37591552734375,277.8227844238281,
268.0639953613281,283.0287170410156,
257.3024597167969,278.8121337890625,
245.06185913085938,279.0110778808594,
233.1302032470703,276.9517517089844,
