108.44277954101562,150.36526489257812,
112.49044799804688,184.87094116210938,
119.37545776367188,217.4522247314453,
126.88390350341797,248.4908905029297,
141.52743530273438,275.4212341308594,
162.8968963623047,299.1690368652344,
185.8271026611328,318.92303466796875,
211.24945068359375,333.5143127441406,
240.2105712890625,336.5145263671875,
268.009033203125,329.0111999511719,
290.4765930175781,309.43310546875,
309.58551025390625,286.0422058105469,
324.0374450683594,259.2118225097656,
332.9426574707031,229.6515655517578,
337.9044189453125,198.67153930664062,
340.3797302246094,167.5184326171875,
340.6177673339844,135.5689697265625,
133.94216918945312,141.33035278320312,
150.9899139404297,128.0887908935547,
174.0005340576172,125.41742706298828,
196.5457305908203,129.32936096191406,
217.51690673828125,137.32815551757812,
248.7802276611328,136.15919494628906,
267.1264343261719,127.66422271728516,
287.3564147949219,121.79727172851562,
307.500244140625,120.60353088378906,
322.5053405761719,130.38133239746094,
234.83067321777344,158.0285186767578,
236.93092346191406,180.46823120117188,
239.0552215576172,203.40328979492188,
241.4662628173828,227.21096801757812,
210.1469268798828,236.419189453125,
224.55245971679688,239.4521026611328,
239.11448669433594,243.01205444335938,
252.47264099121094,237.6814422607422,
263.80401611328125,232.56239318847656,
157.56683349609375,157.37393188476562,
170.62973022460938,153.2747039794922,
184.9431915283203,153.92578125,
196.58480834960938,161.7738037109375,
183.94720458984375,164.01104736328125,
169.77647399902344,163.41355895996094,
262.77337646484375,158.7567138671875,
274.0621337890625,149.38958740234375,
287.53131103515625,147.258056640625,
300.45465087890625,150.35499572753906,
290.2225341796875,158.01231384277344,
276.41119384765625,159.60711669921875,
189.6932830810547,267.6777648925781,
208.8026580810547,263.8407897949219,
225.58697509765625,260.8895263671875,
238.3488006591797,262.9515075683594,
250.8010711669922,259.0105285644531,
265.91644287109375,259.5915832519531,
280.75994873046875,260.2541809082031,
267.4148864746094,276.37359619140625,
253.8577880859375,284.0762634277344,
240.2357635498047,286.23016357421875,
226.74891662597656,286.047119140625,
209.93209838867188,281.460205078125,
196.32888793945312,268.5390625,
225.73033142089844,268.029296875,
238.6348114013672,268.3685607910156,
251.4529266357422,266.1107177734375,
274.8065490722656,262.2685546875,
252.2922821044922,269.81573486328125,
239.16806030273438,272.1015930175781,
226.30345153808594,271.4668884277344,
