134.2300567626953,150.67227172851562,
135.2025146484375,174.73976135253906,
137.4111785888672,198.48983764648438,
141.87681579589844,222.06300354003906,
151.57064819335938,242.2615966796875,
168.2605438232422,257.8638610839844,
188.44699096679688,268.68426513671875,
210.26153564453125,274.42254638671875,
230.86471557617188,273.98431396484375,
249.39112854003906,269.7707824707031,
264.4958190917969,259.013671875,
277.5537109375,245.87960815429688,
287.4937438964844,229.22732543945312,
293.35302734375,211.39393615722656,
296.2559509277344,192.9459686279297,
297.2567443847656,173.92919921875,
296.6515197753906,155.22314453125,
162.4330596923828,130.24197387695312,
173.13327026367188,118.44022369384766,
189.33131408691406,111.99028015136719,
206.4761199951172,112.88479614257812,
222.1632080078125,118.28459930419922,
249.57040405273438,119.214111328125,
259.9831237792969,115.268798828125,
271.91070556640625,113.75816345214844,
282.77044677734375,116.9359130859375,
289.93707275390625,125.89615631103516,
235.35540771484375,137.34483337402344,
236.46311950683594,150.24517822265625,
237.84129333496094,162.56427001953125,
239.06509399414062,175.699462890625,
219.02151489257812,193.2967529296875,
228.0764617919922,193.47952270507812,
236.80856323242188,193.5901641845703,
244.17813110351562,192.37881469726562,
250.71957397460938,190.57208251953125,
178.71417236328125,144.56622314453125,
187.9604034423828,139.84970092773438,
198.5274658203125,139.35951232910156,
207.74205017089844,145.0346221923828,
198.06077575683594,147.32040405273438,
187.7384796142578,147.4051055908203,
252.109619140625,144.1703643798828,
260.8719482421875,138.30735778808594,
270.666015625,138.21566772460938,
278.34765625,143.29074096679688,
270.9308776855469,145.8992919921875,
261.3717346191406,145.7594757080078,
200.76177978515625,228.2210235595703,
213.726318359375,217.1426239013672,
226.26962280273438,210.33229064941406,
234.65582275390625,211.8273162841797,
241.224853515625,209.44374084472656,
249.52296447753906,214.55455017089844,
254.32252502441406,224.85006713867188,
249.2032928466797,230.14430236816406,
241.69134521484375,233.564208984375,
234.69189453125,234.56919860839844,
226.1953887939453,234.99655151367188,
213.84799194335938,234.01319885253906,
205.86337280273438,226.60679626464844,
226.3802947998047,219.02017211914062,
234.75001525878906,218.96224975585938,
241.414306640625,217.97975158691406,
250.79580688476562,224.0517578125,
241.43479919433594,223.24009704589844,
234.5236053466797,224.86985778808594,
226.3917236328125,225.20750427246094,
