107.28931427001953,143.64108276367188,
105.78963470458984,169.11129760742188,
108.50779724121094,196.01600646972656,
115.50619506835938,221.54815673828125,
127.33863067626953,245.1779022216797,
143.40684509277344,265.698486328125,
162.1397705078125,282.5627746582031,
180.7196807861328,296.8816833496094,
200.59532165527344,300.4202880859375,
221.7461700439453,297.4779052734375,
243.0098419189453,284.9864196777344,
265.8445129394531,270.3679504394531,
285.72369384765625,251.03659057617188,
299.9712829589844,227.34193420410156,
309.0211486816406,200.40879821777344,
313.7789611816406,171.7095184326172,
315.34906005859375,142.08392333984375,
123.25064086914062,123.83928680419922,
135.29966735839844,115.42203521728516,
151.165283203125,116.00682067871094,
166.15272521972656,120.17366027832031,
180.1139678955078,125.69296264648438,
211.15234375,121.28263092041016,
228.85098266601562,114.5299301147461,
246.7443084716797,111.440185546875,
264.61956787109375,114.2362289428711,
279.7431945800781,122.93087005615234,
195.09713745117188,150.4092254638672,
194.45303344726562,164.8946075439453,
193.4196319580078,179.16893005371094,
192.61204528808594,194.22662353515625,
176.47579956054688,213.4956817626953,
185.60191345214844,214.97100830078125,
194.3798370361328,215.95948791503906,
203.70982360839844,215.14016723632812,
212.9483642578125,214.11495971679688,
139.78106689453125,153.09364318847656,
151.00962829589844,148.1130828857422,
163.972412109375,149.08705139160156,
173.83453369140625,157.58074951171875,
162.79183959960938,160.7046356201172,
149.60159301757812,159.69114685058594,
222.38626098632812,155.84921264648438,
233.09754943847656,147.134521484375,
245.9485321044922,146.9168701171875,
258.2561340332031,151.3794403076172,
247.5127410888672,157.29653930664062,
234.6594696044922,158.3852996826172,
166.219482421875,246.7615509033203,
176.30859375,240.93028259277344,
187.455810546875,236.22299194335938,
193.8737030029297,238.40573120117188,
202.10824584960938,236.16384887695312,
216.1524200439453,241.379638671875,
231.0734405517578,247.44410705566406,
216.327880859375,260.0142517089844,
203.2657012939453,264.00982666015625,
194.48696899414062,264.45391845703125,
187.11489868164062,263.95684814453125,
176.7569580078125,258.71112060546875,
172.52569580078125,247.54769897460938,
187.35723876953125,244.87399291992188,
194.05819702148438,245.35348510742188,
202.30824279785156,245.14613342285156,
224.799560546875,248.16656494140625,
202.45648193359375,251.55859375,
194.054931640625,252.2880401611328,
187.34597778320312,251.65988159179688,
