74.68496704101562,156.14840698242188,
75.69304656982422,183.68907165527344,
80.10934448242188,210.88743591308594,
84.71338653564453,237.51258850097656,
92.410888671875,262.93719482421875,
107.46385955810547,285.0466003417969,
128.09429931640625,302.8093566894531,
153.7712860107422,313.48529052734375,
183.46029663085938,316.17987060546875,
212.7869873046875,312.3602294921875,
238.0760955810547,300.787841796875,
258.0296630859375,282.20428466796875,
270.3943786621094,258.85009765625,
276.61627197265625,232.90841674804688,
279.7554626464844,206.3235626220703,
281.96575927734375,179.4366455078125,
281.0292053222656,151.77462768554688,
93.486572265625,132.3941192626953,
105.14395141601562,117.03861236572266,
122.75852966308594,111.62847900390625,
141.85220336914062,112.91487121582031,
160.1279296875,118.5997543334961,
192.70449829101562,116.60235595703125,
210.6815643310547,110.59326934814453,
228.99755859375,108.32050323486328,
247.1266632080078,112.55219268798828,
260.08587646484375,124.90138244628906,
178.9830322265625,141.04783630371094,
179.99655151367188,156.2412872314453,
181.07705688476562,170.994384765625,
182.09646606445312,186.7501220703125,
159.53121948242188,209.15933227539062,
170.4691619873047,210.3391876220703,
181.03738403320312,211.083251953125,
191.08810424804688,209.4813690185547,
200.55018615722656,207.6829071044922,
115.30834197998047,149.4029998779297,
126.1337890625,142.1610870361328,
139.31051635742188,142.1466827392578,
150.65908813476562,151.304931640625,
139.18350219726562,154.20579528808594,
125.98439025878906,154.50680541992188,
202.89825439453125,149.33285522460938,
214.718994140625,139.05601501464844,
228.39012145996094,138.8934783935547,
239.45175170898438,145.71754455566406,
229.59844970703125,150.74050903320312,
215.8298797607422,151.41905212402344,
145.83883666992188,254.0724639892578,
159.81568908691406,243.0517120361328,
172.29200744628906,235.42041015625,
180.9567108154297,237.87034606933594,
189.8433074951172,235.0138397216797,
202.145751953125,241.94607543945312,
214.89686584472656,251.2245635986328,
202.1154327392578,258.3488464355469,
190.68199157714844,261.56689453125,
181.02108764648438,262.46319580078125,
171.3194122314453,262.3096008300781,
159.05223083496094,259.9712829589844,
151.95175170898438,253.03724670410156,
172.36459350585938,247.88433837890625,
181.22610473632812,248.75991821289062,
190.33912658691406,247.73374938964844,
208.66676330566406,250.54434204101562,
189.8002471923828,247.26797485351562,
180.49905395507812,248.58673095703125,
171.63455200195312,248.35179138183594,
