60.32529067993164,101.1796875,
60.216129302978516,125.39413452148438,
62.6373405456543,150.2579803466797,
65.73896026611328,175.21417236328125,
73.6971664428711,199.10897827148438,
89.93964385986328,219.70840454101562,
112.07645416259766,234.56130981445312,
137.44061279296875,244.68408203125,
165.36679077148438,246.9333953857422,
193.27293395996094,242.9152069091797,
217.8488006591797,232.14889526367188,
238.85287475585938,217.60520935058594,
252.2278594970703,198.0858154296875,
259.1221008300781,174.65579223632812,
262.20672607421875,149.7670135498047,
264.5962219238281,124.4729995727539,
264.5205383300781,99.95384979248047,
80.37163543701172,63.35239791870117,
94.13416290283203,50.4196662902832,
112.74380493164062,45.824737548828125,
131.81658935546875,48.682533264160156,
148.71485900878906,55.545188903808594,
178.840087890625,54.55427551269531,
196.41845703125,48.52641677856445,
215.47877502441406,46.761192321777344,
233.788818359375,51.167510986328125,
246.14804077148438,65.04093933105469,
165.26622009277344,74.88434600830078,
165.44175720214844,88.39395904541016,
165.90431213378906,101.68150329589844,
166.2416534423828,116.1202621459961,
143.4696044921875,138.91502380371094,
153.92201232910156,140.41873168945312,
164.30990600585938,141.67630004882812,
174.4744110107422,140.44076538085938,
183.64459228515625,139.2477569580078,
98.5688247680664,82.5797119140625,
110.12860870361328,77.41826629638672,
123.02970123291016,77.42656707763672,
134.6639862060547,84.00878143310547,
122.71725463867188,86.26168060302734,
109.75081634521484,86.21878814697266,
191.60910034179688,84.15838623046875,
204.08326721191406,77.65076446533203,
216.723876953125,78.39391326904297,
227.74356079101562,84.17459106445312,
216.873046875,87.23352813720703,
204.08770751953125,86.83740997314453,
126.58183288574219,179.331787109375,
141.14739990234375,167.12010192871094,
154.75120544433594,160.21453857421875,
163.38072204589844,162.4632568359375,
172.74267578125,160.0620574951172,
185.9955596923828,167.30422973632812,
199.4605255126953,178.2102508544922,
186.28997802734375,184.53555297851562,
173.30828857421875,187.48300170898438,
163.20364379882812,188.11215209960938,
153.84799194335938,188.16273498535156,
140.8605499267578,186.3542938232422,
133.12335205078125,178.3712921142578,
154.63308715820312,173.17050170898438,
163.4669952392578,173.45619201660156,
172.8924560546875,173.0955047607422,
192.8838348388672,177.32920837402344,
172.74375915527344,173.16761779785156,
163.15257263183594,173.804443359375,
154.35382080078125,173.46298217773438,
