104.00521850585938,137.1519317626953,
104.29795837402344,169.46824645996094,
108.52689361572266,201.69842529296875,
117.01638793945312,230.70542907714844,
133.45460510253906,255.22891235351562,
156.60108947753906,274.22174072265625,
181.11155700683594,289.035400390625,
205.89903259277344,298.3905334472656,
229.6798553466797,300.41070556640625,
248.25831604003906,296.0747375488281,
261.0376281738281,282.5072937011719,
273.41107177734375,266.5895080566406,
285.51983642578125,247.05599975585938,
294.4976501464844,225.64295959472656,
301.2127685546875,203.3251495361328,
305.0152282714844,181.49020385742188,
304.6817626953125,160.05047607421875,
150.1803741455078,118.35497283935547,
172.662353515625,109.9400634765625,
196.226806640625,109.45993041992188,
217.96836853027344,116.79745483398438,
237.94761657714844,126.72454071044922,
262.0630798339844,131.0010223388672,
276.1933288574219,125.84681701660156,
290.1108703613281,122.6198959350586,
303.2189025878906,123.34354400634766,
309.5443420410156,133.92910766601562,
248.63755798339844,149.48760986328125,
250.0843963623047,167.43971252441406,
251.99130249023438,185.24771118164062,
253.725830078125,203.24264526367188,
223.22621154785156,216.14407348632812,
234.17337036132812,217.7993927001953,
244.23997497558594,219.66656494140625,
252.95826721191406,219.04566955566406,
260.8104248046875,217.29296875,
172.92056274414062,143.17042541503906,
187.00038146972656,139.0216064453125,
200.4971160888672,140.8006134033203,
211.41632080078125,150.80430603027344,
198.31597900390625,152.07228088378906,
184.6729736328125,150.0563201904297,
261.1501770019531,156.3589630126953,
273.1294860839844,147.99327087402344,
285.6454772949219,148.93087768554688,
293.8614196777344,155.36180114746094,
285.84393310546875,160.70396423339844,
273.203125,160.2527618408203,
194.7775421142578,244.70982360839844,
214.3083953857422,238.2372283935547,
231.35372924804688,233.93455505371094,
240.84814453125,238.118896484375,
250.22921752929688,235.95457458496094,
257.3915100097656,242.03427124023438,
262.4431457519531,249.82852172851562,
254.85638427734375,256.31390380859375,
247.6754150390625,260.2713928222656,
237.6459503173828,260.8834228515625,
227.1639862060547,259.1829833984375,
212.1329345703125,254.10369873046875,
201.62586975097656,245.81719970703125,
229.7537384033203,246.642822265625,
239.7616729736328,248.12550354003906,
249.0868377685547,247.9705352783203,
256.8079528808594,250.14537048339844,
248.83868408203125,245.74038696289062,
239.5853729248047,246.3555145263672,
229.6048583984375,244.87322998046875,
