136.7568359375,162.05560302734375,
142.54286193847656,185.8289337158203,
149.7386016845703,208.04061889648438,
158.34451293945312,229.53729248046875,
167.4750213623047,250.43234252929688,
183.3699188232422,270.1885681152344,
200.4578857421875,286.33526611328125,
219.5202178955078,299.45880126953125,
242.1836395263672,301.053955078125,
265.9088439941406,295.59063720703125,
287.5029602050781,281.3778076171875,
306.09625244140625,262.82855224609375,
320.66107177734375,240.86544799804688,
330.1687927246094,214.828857421875,
333.3455810546875,186.8665008544922,
334.0602722167969,156.8455352783203,
332.70794677734375,125.69636535644531,
132.5030975341797,138.1546173095703,
139.2968292236328,125.77982330322266,
153.99301147460938,123.53753662109375,
169.3994140625,125.15547180175781,
184.61907958984375,128.57164001464844,
215.4734649658203,119.96808624267578,
234.84461975097656,109.43025970458984,
255.44700622558594,102.89173126220703,
277.8327331542969,103.59244537353516,
296.1875305175781,113.41629791259766,
206.0068817138672,148.21681213378906,
208.29037475585938,166.43458557128906,
210.20114135742188,184.01382446289062,
212.29808044433594,202.226318359375,
198.02003479003906,217.66358947753906,
207.73545837402344,219.71035766601562,
217.6791534423828,220.64376831054688,
227.9596405029297,216.94871520996094,
237.50143432617188,212.8903350830078,
151.4992218017578,157.0023193359375,
160.0623779296875,149.43682861328125,
173.58995056152344,148.39797973632812,
185.2886505126953,156.6280975341797,
174.62738037109375,159.89918518066406,
161.16485595703125,161.5020294189453,
238.64437866210938,148.28982543945312,
248.97103881835938,136.20709228515625,
263.0150451660156,133.52975463867188,
277.1040954589844,138.54598999023438,
266.8398742675781,145.6056671142578,
252.81219482421875,148.2042694091797,
190.90399169921875,248.61782836914062,
199.91567993164062,241.31063842773438,
211.6268310546875,236.31521606445312,
220.75572204589844,237.55349731445312,
231.05502319335938,233.88522338867188,
247.40377807617188,236.296630859375,
265.8788146972656,239.9970703125,
250.21507263183594,250.44119262695312,
235.75975036621094,256.1836853027344,
224.80409240722656,258.0645446777344,
215.03196716308594,258.1299133300781,
202.8017120361328,254.83102416992188,
196.89727783203125,248.36990356445312,
212.9008331298828,246.17100524902344,
222.27976989746094,246.16709899902344,
232.89691162109375,243.85740661621094,
259.3583679199219,240.39736938476562,
232.92796325683594,244.16946411132812,
222.35723876953125,246.43284606933594,
213.07363891601562,246.3605194091797,
