121.93592834472656,197.54690551757812,
123.28923034667969,224.05552673339844,
126.75428009033203,249.57102966308594,
131.78663635253906,276.92047119140625,
143.00924682617188,301.01092529296875,
162.54583740234375,320.029541015625,
188.49624633789062,332.3958435058594,
219.08883666992188,338.4755554199219,
251.8541717529297,338.81390380859375,
282.92193603515625,336.24554443359375,
308.9107360839844,326.2079162597656,
327.6817626953125,310.40155029296875,
337.9568176269531,288.0281982421875,
340.6010437011719,262.8128662109375,
341.4935302734375,238.40089416503906,
342.8462219238281,215.3272705078125,
341.96002197265625,192.7671356201172,
148.7798614501953,145.2241668701172,
163.64418029785156,128.2769317626953,
184.73484802246094,119.21211242675781,
207.4918212890625,119.17374420166016,
228.61376953125,126.18402862548828,
255.78221130371094,126.41986083984375,
275.2254638671875,120.8153305053711,
296.01629638671875,121.39854431152344,
315.21685791015625,129.01597595214844,
325.9697265625,145.57005310058594,
245.8642578125,150.29995727539062,
247.56716918945312,163.9452667236328,
249.4605712890625,177.43370056152344,
251.13436889648438,192.23777770996094,
224.21864318847656,217.82289123535156,
235.98617553710938,220.37086486816406,
247.26513671875,222.15977478027344,
258.04949951171875,220.3994140625,
268.2176513671875,218.05641174316406,
170.5915985107422,163.2436065673828,
180.9630584716797,153.3694305419922,
194.4847869873047,152.7843780517578,
208.2188720703125,162.47348022460938,
195.25738525390625,164.63809204101562,
181.42422485351562,165.50888061523438,
269.4041748046875,163.65029907226562,
281.7101135253906,153.2440643310547,
295.85400390625,155.06936645507812,
306.52392578125,165.10252380371094,
295.6901550292969,167.1319580078125,
281.8252868652344,166.41650390625,
203.8383331298828,264.7531433105469,
220.05996704101562,245.92608642578125,
235.83773803710938,236.65866088867188,
246.91477966308594,239.6472625732422,
258.126708984375,236.9272003173828,
272.28857421875,246.67059326171875,
286.0238952636719,263.71478271484375,
272.68170166015625,270.7762145996094,
259.48150634765625,271.78057861328125,
247.66404724121094,272.2461853027344,
235.41015625,270.9844055175781,
220.32937622070312,269.5191955566406,
211.19583129882812,263.05792236328125,
235.8379364013672,251.96539306640625,
247.0260772705078,252.35464477539062,
258.3401794433594,252.20005798339844,
279.0353088378906,262.4025573730469,
258.8003845214844,256.6756286621094,
247.4546356201172,257.1974182128906,
235.87188720703125,256.41265869140625,
