122.52283477783203,166.15142822265625,
124.60271453857422,191.48446655273438,
128.42019653320312,216.8606414794922,
132.5380859375,243.04400634765625,
139.10079956054688,268.5566711425781,
153.54116821289062,291.11846923828125,
172.7227783203125,309.418701171875,
196.67471313476562,321.55499267578125,
224.21246337890625,323.7737121582031,
252.7032928466797,319.7476501464844,
278.8008728027344,307.17529296875,
301.6094970703125,289.52728271484375,
319.8035583496094,267.7901611328125,
328.7056884765625,241.7066650390625,
331.970458984375,215.04940795898438,
334.53265380859375,187.12428283691406,
334.2892150878906,158.55657958984375,
141.03582763671875,133.57351684570312,
150.85882568359375,119.83744812011719,
166.4910888671875,113.62664031982422,
184.2649688720703,112.84015655517578,
202.00534057617188,115.89047241210938,
233.43153381347656,115.82424926757812,
251.67259216308594,110.86122131347656,
270.1512451171875,109.81697845458984,
288.868408203125,115.10721588134766,
302.6533508300781,127.69924926757812,
217.69479370117188,140.05459594726562,
217.29298400878906,155.2169952392578,
216.87503051757812,169.86167907714844,
216.5830535888672,185.79150390625,
200.2720184326172,211.17274475097656,
209.53677368164062,212.5089111328125,
219.6983642578125,212.9548797607422,
230.21530151367188,211.37591552734375,
240.72930908203125,208.8787078857422,
159.2726287841797,155.177734375,
170.05401611328125,147.94578552246094,
182.65682983398438,146.8294219970703,
194.82363891601562,153.49301147460938,
182.90249633789062,156.59695434570312,
170.4980926513672,157.5868377685547,
247.64822387695312,151.0213623046875,
259.5233459472656,143.001708984375,
272.7720947265625,143.1093292236328,
285.0462341308594,149.08641052246094,
273.39105224609375,152.2356719970703,
260.2294616699219,152.480712890625,
188.21192932128906,259.83624267578125,
199.97686767578125,245.8385467529297,
212.43975830078125,236.26556396484375,
221.56260681152344,238.10623168945312,
230.667236328125,235.04518127441406,
245.23008728027344,242.90924072265625,
259.911376953125,256.0653991699219,
246.5303497314453,264.5173034667969,
233.27967834472656,268.2328186035156,
223.5280303955078,269.6063537597656,
213.591064453125,269.9459533691406,
201.31089782714844,267.9192810058594,
194.51589965820312,258.48748779296875,
212.8309326171875,249.367919921875,
222.2007598876953,249.56381225585938,
231.55532836914062,248.03439331054688,
253.70767211914062,254.82818603515625,
232.03240966796875,252.86387634277344,
222.46173095703125,254.47303771972656,
212.95291137695312,254.72695922851562,
