123.22297668457031,159.48745727539062,
122.6886215209961,183.60647583007812,
125.6938247680664,208.4769744873047,
129.55459594726562,233.52816772460938,
138.0660400390625,257.8691101074219,
155.2295684814453,278.44476318359375,
177.9893798828125,293.28216552734375,
203.3188934326172,303.360107421875,
231.15481567382812,305.79241943359375,
258.2513427734375,301.8735656738281,
282.52215576171875,291.9418029785156,
303.9362487792969,276.7647399902344,
317.9170227050781,256.2455749511719,
325.3397521972656,232.47048950195312,
328.6265869140625,207.0423126220703,
330.5414123535156,181.48338317871094,
329.9275817871094,156.67835998535156,
142.84701538085938,123.99101257324219,
156.8035125732422,111.5729751586914,
175.25381469726562,107.51424407958984,
194.49713134765625,109.72675323486328,
211.3450469970703,116.1837158203125,
241.1321563720703,114.71855163574219,
257.9631652832031,108.50996398925781,
276.47222900390625,106.72148895263672,
294.2670593261719,110.37744140625,
308.44036865234375,121.23583984375,
227.6092987060547,135.55718994140625,
227.8540802001953,149.0977020263672,
228.27633666992188,162.6981658935547,
228.6973114013672,177.65464782714844,
206.0315704345703,199.9384307861328,
216.959228515625,201.55409240722656,
227.94256591796875,202.85768127441406,
238.08316040039062,201.28884887695312,
247.59844970703125,199.82846069335938,
162.1514892578125,142.8852081298828,
173.8502655029297,137.88316345214844,
186.55929565429688,137.61940002441406,
197.51483154296875,143.9854736328125,
186.75369262695312,146.5998077392578,
173.79620361328125,146.6522216796875,
255.36378479003906,143.721923828125,
267.5623474121094,137.17994689941406,
280.0597229003906,137.5375213623047,
290.5435485839844,142.61607360839844,
280.39849853515625,146.12225341796875,
267.8445739746094,146.14102172851562,
190.32130432128906,239.49484252929688,
204.54251098632812,228.2489776611328,
217.9232940673828,221.18972778320312,
226.83538818359375,223.74913024902344,
236.8369598388672,221.0010223388672,
250.46945190429688,227.88758850097656,
263.0816345214844,238.55758666992188,
250.56112670898438,245.59786987304688,
238.11741638183594,248.4686737060547,
227.31781005859375,249.70523071289062,
217.67636108398438,249.9412384033203,
204.67161560058594,247.42721557617188,
196.66358947753906,238.69778442382812,
218.014404296875,233.63247680664062,
226.9723663330078,234.2333984375,
237.15859985351562,233.3751678466797,
256.41595458984375,237.52090454101562,
237.19801330566406,233.46434020996094,
227.05247497558594,234.34141540527344,
217.87750244140625,234.086669921875,
