118.02533721923828,170.6040496826172,
123.46099090576172,205.7410430908203,
131.45538330078125,239.733642578125,
140.47557067871094,271.9515380859375,
155.623291015625,300.84075927734375,
178.27481079101562,325.38385009765625,
203.5454559326172,343.9577941894531,
228.99234008789062,357.6296081542969,
255.7340545654297,359.5982666015625,
281.01934814453125,352.3921203613281,
300.3722839355469,331.4530029296875,
317.45526123046875,307.61334228515625,
331.5386962890625,281.13372802734375,
340.9252014160156,252.33169555664062,
346.7318420410156,222.36843872070312,
350.841796875,190.4446563720703,
352.10748291015625,158.39585876464844,
146.03395080566406,153.67066955566406,
163.9574432373047,139.339111328125,
187.42637634277344,137.737060546875,
209.92364501953125,143.94564819335938,
229.46774291992188,153.5315399169922,
259.56646728515625,149.70010375976562,
277.5851745605469,140.9993896484375,
296.49041748046875,134.86183166503906,
315.83441162109375,135.1760711669922,
329.5003662109375,146.65492248535156,
247.67523193359375,176.40304565429688,
250.75454711914062,198.75914001464844,
253.8452606201172,221.57249450683594,
257.0645446777344,244.69557189941406,
225.69912719726562,257.1458435058594,
239.39065551757812,260.6100158691406,
252.95556640625,263.2585144042969,
265.33966064453125,259.6851501464844,
276.0444641113281,255.12991333007812,
170.66302490234375,178.59564208984375,
184.862060546875,176.01980590820312,
198.49313354492188,176.34266662597656,
210.09413146972656,182.4188232421875,
197.78472900390625,184.34005737304688,
184.11546325683594,183.8153533935547,
273.41668701171875,179.84686279296875,
285.7122802734375,173.49630737304688,
298.3553161621094,172.82264709472656,
310.4721984863281,175.06097412109375,
299.98284912109375,180.7493133544922,
287.3127746582031,181.451416015625,
206.68435668945312,297.2248840332031,
224.11204528808594,289.2965393066406,
240.1544647216797,283.5166015625,
251.6183624267578,286.3221435546875,
263.5187072753906,282.79315185546875,
275.54541015625,287.3603210449219,
287.7464294433594,292.8222961425781,
276.2912292480469,306.552734375,
265.3956604003906,312.8236389160156,
252.25271606445312,314.802734375,
239.56735229492188,314.0875244140625,
224.01158142089844,308.8986511230469,
214.5172119140625,297.59686279296875,
240.13934326171875,295.3016052246094,
251.74696350097656,295.4573669433594,
264.3032531738281,293.8897705078125,
280.76739501953125,294.3257141113281,
264.2702941894531,296.8299560546875,
251.5575714111328,298.9556884765625,
239.8447723388672,298.72955322265625,
