128.26400756835938,175.4995880126953,
127.63855743408203,198.03872680664062,
130.69790649414062,220.6121368408203,
135.88467407226562,242.24876403808594,
144.9713134765625,263.4350891113281,
159.05799865722656,282.7427673339844,
176.75579833984375,298.3140869140625,
196.97293090820312,308.6683044433594,
220.59046936035156,309.5868225097656,
243.8623504638672,305.5628967285156,
265.7622985839844,294.5602111816406,
287.5796813964844,279.2422790527344,
305.2442321777344,259.9394836425781,
315.4975891113281,235.01275634765625,
320.02227783203125,208.37081909179688,
324.13397216796875,180.6396484375,
324.9700927734375,153.16390991210938,
138.2681427001953,135.8749542236328,
145.99041748046875,121.49382019042969,
160.47476196289062,112.23941802978516,
177.3383026123047,109.60298156738281,
193.9662322998047,112.59587860107422,
225.02528381347656,107.30143737792969,
242.694580078125,100.40960693359375,
262.2984313964844,99.23660278320312,
281.158447265625,104.06031799316406,
293.98095703125,118.11487579345703,
211.1696319580078,140.5206756591797,
211.46871948242188,155.61587524414062,
211.61129760742188,170.1327362060547,
211.599853515625,185.30960083007812,
193.9186248779297,207.9866943359375,
203.74302673339844,209.6178741455078,
213.80821228027344,210.07850646972656,
224.2176971435547,207.7435302734375,
234.53695678710938,204.86758422851562,
153.72824096679688,157.521240234375,
161.7615966796875,148.09828186035156,
173.91250610351562,146.57037353515625,
186.1780548095703,154.15234375,
174.80374145507812,157.19664001464844,
162.5802764892578,158.8445281982422,
241.83956909179688,147.1868133544922,
251.7687530517578,136.80543518066406,
264.4980773925781,135.581298828125,
277.02117919921875,142.59848022460938,
266.0276794433594,146.51046752929688,
253.1265869140625,147.52081298828125,
183.81161499023438,251.79251098632812,
193.46571350097656,236.10218811035156,
205.16836547851562,227.72425842285156,
214.07350158691406,229.59417724609375,
222.85057067871094,226.38589477539062,
237.65704345703125,233.46372985839844,
254.0463104248047,246.5545196533203,
239.1066131591797,254.24705505371094,
225.76426696777344,256.5409240722656,
216.0864715576172,258.12091064453125,
206.6308135986328,258.1985778808594,
195.59043884277344,257.1391296386719,
190.03204345703125,249.62936401367188,
206.07406616210938,242.01315307617188,
214.9237823486328,241.79176330566406,
223.96534729003906,240.8936309814453,
247.7899169921875,245.51303100585938,
224.1553192138672,242.0845489501953,
214.99830627441406,242.9165496826172,
206.14239501953125,243.6058349609375,
