136.73867797851562,201.0528564453125,
136.7003631591797,220.86549377441406,
139.4284210205078,239.64620971679688,
143.0957489013672,257.7305603027344,
149.7692413330078,275.91583251953125,
160.44253540039062,292.63641357421875,
172.36248779296875,307.5509948730469,
186.10699462890625,321.3587951660156,
202.98248291015625,324.3902893066406,
221.59539794921875,321.14642333984375,
239.07244873046875,309.3899230957031,
255.1776123046875,294.9541320800781,
269.320556640625,278.91229248046875,
279.7178955078125,259.1697082519531,
284.3887939453125,236.03005981445312,
286.97735595703125,212.05345153808594,
287.8292236328125,187.94427490234375,
131.97914123535156,184.51864624023438,
138.66876220703125,174.86953735351562,
151.18350219726562,172.80670166015625,
163.7924041748047,175.35504150390625,
175.42959594726562,180.66091918945312,
204.54966735839844,176.42225646972656,
220.28367614746094,169.39749145507812,
236.9165802001953,165.99942016601562,
254.39584350585938,166.9689178466797,
267.63458251953125,176.26612854003906,
191.12234497070312,200.8914794921875,
190.95230102539062,217.334228515625,
190.56781005859375,233.78688049316406,
190.3468780517578,250.19271850585938,
176.5222625732422,255.71066284179688,
184.76473999023438,258.47479248046875,
193.49876403808594,260.7082214355469,
202.45921325683594,257.3077087402344,
211.3751983642578,253.98777770996094,
146.5709991455078,203.95428466796875,
153.96859741210938,198.545654296875,
164.75613403320312,199.10850524902344,
174.08309936523438,206.594482421875,
164.20278930664062,208.62615966796875,
153.36090087890625,208.5714874267578,
219.44752502441406,204.21083068847656,
229.5287628173828,195.67416381835938,
241.2988739013672,194.24746704101562,
251.70289611816406,198.70635986328125,
242.90768432617188,204.42417907714844,
230.97842407226562,205.63368225097656,
166.77352905273438,274.31097412109375,
176.45684814453125,272.2356262207031,
186.6715850830078,270.3684387207031,
195.31593322753906,271.7342834472656,
204.2274932861328,269.1885986328125,
218.40525817871094,269.7310791015625,
235.08416748046875,270.5470886230469,
220.8535614013672,286.25140380859375,
207.2845001220703,292.6924133300781,
197.81033325195312,294.1560363769531,
188.46856689453125,293.7320251464844,
177.56845092773438,288.3704528808594,
171.7694549560547,275.7637634277344,
187.08302307128906,276.7677001953125,
195.9713134765625,277.6324462890625,
204.98013305664062,275.74456787109375,
229.63612365722656,271.9701843261719,
206.08981323242188,281.0084228515625,
196.8647003173828,282.2588806152344,
187.79519653320312,281.6653747558594,
