122.83716583251953,166.23435974121094,
119.718994140625,184.89324951171875,
119.81741333007812,204.5738067626953,
123.64868927001953,224.0294189453125,
131.70217895507812,242.26210021972656,
144.86570739746094,257.9532165527344,
161.18600463867188,268.540283203125,
178.95318603515625,276.4490966796875,
198.22885131835938,278.1354675292969,
219.06700134277344,278.037841796875,
241.7299346923828,273.3835754394531,
263.8552551269531,265.1696472167969,
281.7551574707031,251.85214233398438,
292.6615905761719,233.6559600830078,
298.3970031738281,212.93023681640625,
300.9789733886719,191.1961669921875,
301.052001953125,170.37802124023438,
137.33082580566406,130.99560546875,
145.67605590820312,119.6654052734375,
158.24989318847656,115.20720672607422,
171.61534118652344,115.6530532836914,
184.3238067626953,119.97171020507812,
218.17576599121094,117.21648406982422,
233.36737060546875,112.47371673583984,
248.545654296875,112.57643127441406,
262.91851806640625,118.91329956054688,
273.04150390625,130.7345733642578,
200.32090759277344,141.8604736328125,
198.95863342285156,151.3782196044922,
197.5138397216797,160.34828186035156,
196.13253784179688,170.16241455078125,
181.98184204101562,193.6553497314453,
189.7147979736328,194.60693359375,
197.5292205810547,194.81825256347656,
205.64988708496094,194.31088256835938,
213.7887725830078,193.72613525390625,
150.7426300048828,150.45858764648438,
159.49046325683594,142.43634033203125,
169.73654174804688,141.95669555664062,
176.7278289794922,151.17568969726562,
169.0711669921875,152.28428649902344,
158.98411560058594,152.15780639648438,
228.23696899414062,150.85671997070312,
237.04319763183594,141.52296447753906,
247.53973388671875,141.90328979492188,
255.9704132080078,150.46359252929688,
247.9762420654297,151.97824096679688,
237.62547302246094,152.08018493652344,
173.073486328125,233.55258178710938,
180.20465087890625,219.03475952148438,
190.50401306152344,211.34967041015625,
197.07275390625,213.43795776367188,
204.27183532714844,211.45303344726562,
216.6643524169922,219.28704833984375,
229.51499938964844,233.49972534179688,
217.21884155273438,237.94595336914062,
206.0720672607422,238.69525146484375,
197.84530639648438,238.93971252441406,
190.72447204589844,238.62088012695312,
181.28448486328125,237.1337890625,
178.76625061035156,231.59124755859375,
190.69686889648438,221.74185180664062,
197.3017120361328,221.6072235107422,
204.70350646972656,221.7582550048828,
223.56265258789062,231.49295043945312,
205.29104614257812,227.36505126953125,
197.56192016601562,227.03211975097656,
190.94033813476562,226.8992156982422,
