124.46125793457031,161.17005920410156,
126.66937255859375,189.18624877929688,
131.67649841308594,215.84922790527344,
138.2094268798828,241.28199768066406,
149.40634155273438,264.0591125488281,
167.70562744140625,283.45513916015625,
188.77365112304688,297.021728515625,
212.90744018554688,307.5718688964844,
238.59141540527344,309.2019958496094,
263.70819091796875,304.94342041015625,
284.8935241699219,291.8392028808594,
302.9059143066406,275.8548583984375,
317.0263671875,254.91551208496094,
324.8811950683594,231.32861328125,
328.2615051269531,205.10354614257812,
331.1509704589844,178.995849609375,
331.3077392578125,153.22930908203125,
145.0814971923828,130.3206329345703,
158.86883544921875,116.05368041992188,
178.61729431152344,111.99999237060547,
198.3366241455078,115.16669464111328,
216.3439178466797,123.7196044921875,
246.4435577392578,119.98892974853516,
264.57940673828125,111.84678649902344,
283.0545349121094,108.01564025878906,
301.61053466796875,110.42960357666016,
313.91143798828125,123.87622833251953,
234.49581909179688,145.31851196289062,
235.637939453125,160.8527374267578,
236.87371826171875,176.25868225097656,
237.82696533203125,192.3167266845703,
214.19552612304688,213.63565063476562,
225.49647521972656,215.12770080566406,
236.2130584716797,216.05877685546875,
245.96957397460938,214.95567321777344,
255.3539581298828,213.4429168701172,
165.61532592773438,152.8524627685547,
176.9092254638672,146.50567626953125,
190.4592742919922,146.0972442626953,
202.8527069091797,154.85118103027344,
190.76806640625,157.43899536132812,
176.91897583007812,157.99417114257812,
259.0667724609375,153.53392028808594,
271.07452392578125,144.24876403808594,
284.43084716796875,143.6919403076172,
295.0909729003906,149.6294403076172,
285.8000183105469,155.3060302734375,
272.4891052246094,155.98158264160156,
192.80682373046875,248.8509063720703,
208.33396911621094,237.70672607421875,
224.54347229003906,231.26722717285156,
235.60507202148438,234.2074737548828,
246.30914306640625,231.61061096191406,
260.478271484375,238.09521484375,
274.4273681640625,247.77566528320312,
260.58282470703125,257.1920471191406,
247.40994262695312,261.0943298339844,
235.65756225585938,262.1216735839844,
223.73919677734375,261.3487548828125,
208.03172302246094,257.54681396484375,
199.1961212158203,248.31744384765625,
224.49264526367188,245.86277770996094,
235.83872985839844,246.45343017578125,
246.89988708496094,245.84176635742188,
268.0610656738281,247.0839385986328,
246.5411834716797,246.0487518310547,
235.2913360595703,247.12393188476562,
223.98973083496094,246.7428741455078,
