99.2103500366211,135.52291870117188,
101.52070617675781,168.89183044433594,
107.3798599243164,199.9224395751953,
115.81304931640625,228.4958953857422,
132.12864685058594,252.95838928222656,
154.09695434570312,272.14605712890625,
177.12640380859375,287.78302001953125,
201.74356079101562,299.04827880859375,
225.62521362304688,300.0677490234375,
245.50392150878906,294.4056701660156,
260.2273864746094,277.4440002441406,
274.66143798828125,259.01153564453125,
287.0773010253906,238.36859130859375,
295.9745788574219,216.02552795410156,
302.0517883300781,191.74586486816406,
305.1515197753906,167.12991333007812,
305.4336242675781,142.62356567382812,
136.19381713867188,124.33621215820312,
157.45558166503906,115.45307922363281,
180.31985473632812,115.48677825927734,
201.74937438964844,121.76004791259766,
223.5902557373047,129.85812377929688,
250.06494140625,131.0733184814453,
264.9033203125,125.8794937133789,
279.2905578613281,119.06840515136719,
294.88214111328125,114.89791870117188,
305.5911865234375,122.8691635131836,
237.2240447998047,150.814208984375,
238.79940795898438,170.2635040283203,
240.79071044921875,189.5784149169922,
242.53665161132812,208.89535522460938,
212.65725708007812,219.35601806640625,
224.64833068847656,221.4415283203125,
236.14971923828125,223.49317932128906,
246.11566162109375,221.3955841064453,
255.1980438232422,218.17471313476562,
159.6165771484375,144.9709014892578,
173.60040283203125,140.28469848632812,
187.9199676513672,141.5275115966797,
199.9268341064453,151.58163452148438,
186.15432739257812,153.37274169921875,
171.70645141601562,151.98448181152344,
255.5467071533203,152.6881103515625,
266.21246337890625,142.5408935546875,
279.6570739746094,141.4447021484375,
289.6484069824219,146.6608428955078,
281.3605041503906,153.95179748535156,
267.9554138183594,154.76336669921875,
186.46951293945312,247.1117401123047,
205.87867736816406,241.54037475585938,
223.67689514160156,237.32974243164062,
233.96673583984375,240.7177276611328,
242.73536682128906,237.74050903320312,
253.207275390625,241.3567352294922,
261.0687561035156,246.71168518066406,
251.50611877441406,256.24810791015625,
241.27850341796875,262.2774353027344,
231.52328491210938,263.7643737792969,
220.61251831054688,262.6700744628906,
204.320068359375,257.51422119140625,
193.7628631591797,247.5601348876953,
222.8199462890625,248.6375732421875,
233.3988800048828,249.3560028076172,
242.34950256347656,248.24246215820312,
254.73387145996094,247.31936645507812,
242.02537536621094,246.92039489746094,
232.88014221191406,248.64407348632812,
222.38421630859375,248.18260192871094,
