139.56378173828125,177.5450897216797,
138.1224822998047,197.166748046875,
140.78330993652344,217.47496032714844,
145.8296661376953,237.3621063232422,
151.35365295410156,256.7652587890625,
161.16015625,275.60003662109375,
174.35862731933594,289.6202392578125,
190.6896209716797,301.1603088378906,
209.8383331298828,303.7832946777344,
232.94102478027344,302.6014099121094,
258.73577880859375,295.5253601074219,
283.8604431152344,285.0025939941406,
303.5715026855469,268.1139221191406,
314.748779296875,245.54249572753906,
319.2189636230469,219.46958923339844,
321.4346618652344,192.03636169433594,
322.0930480957031,164.96096801757812,
141.2174530029297,143.90423583984375,
147.30677795410156,133.50267028808594,
158.3877716064453,129.1099395751953,
170.0233917236328,129.55572509765625,
181.48475646972656,132.73741149902344,
211.66720581054688,126.44047546386719,
228.65127563476562,119.83574676513672,
246.55213928222656,117.63758087158203,
264.86309814453125,121.26455688476562,
280.5494384765625,130.95249938964844,
195.86521911621094,155.01513671875,
193.94363403320312,166.76609802246094,
191.68658447265625,178.0956573486328,
189.39364624023438,190.00042724609375,
181.8541717529297,213.78089904785156,
188.62135314941406,214.92344665527344,
195.49935913085938,214.85739135742188,
204.5252227783203,213.57054138183594,
213.94773864746094,212.21913146972656,
153.55215454101562,167.69638061523438,
159.6466064453125,159.23880004882812,
169.2379150390625,158.6427764892578,
178.80026245117188,165.74794006347656,
169.61508178710938,167.92770385742188,
160.0434112548828,168.82383728027344,
228.54319763183594,160.10816955566406,
237.05169677734375,150.3816680908203,
248.39646911621094,150.15260314941406,
259.8702087402344,156.46115112304688,
249.7369842529297,159.34176635742188,
238.59869384765625,160.44700622558594,
179.79220581054688,256.0618896484375,
183.59417724609375,241.68313598632812,
190.74966430664062,234.12478637695312,
198.3970184326172,235.4965362548828,
206.85018920898438,232.77040100097656,
220.9283905029297,239.3532257080078,
236.59388732910156,251.93605041503906,
222.6959686279297,258.96539306640625,
210.1459503173828,260.3131103515625,
200.93264770507812,261.3346252441406,
192.85035705566406,261.1678161621094,
185.793212890625,259.8028869628906,
185.23973083496094,254.32809448242188,
191.7249755859375,243.23867797851562,
199.1699676513672,242.97698974609375,
207.78521728515625,241.93276977539062,
230.4638214111328,250.84661865234375,
208.52255249023438,249.71035766601562,
199.73646545410156,250.76580810546875,
192.17327880859375,250.71359252929688,
