98.76638793945312,98.9964828491211,
99.2986831665039,124.32188415527344,
101.16633605957031,150.34481811523438,
105.73009490966797,176.40768432617188,
117.41148376464844,199.9099578857422,
138.66824340820312,217.12640380859375,
165.31640625,228.0753936767578,
191.3535614013672,233.6368408203125,
215.74400329589844,234.4935302734375,
236.07986450195312,231.19839477539062,
252.2419891357422,220.21730041503906,
264.9955749511719,203.94285583496094,
273.8308410644531,184.18983459472656,
278.7535705566406,163.985595703125,
282.5177917480469,144.924560546875,
282.7229309082031,126.41539764404297,
279.7919921875,108.96605682373047,
138.7712860107422,67.62742614746094,
152.40130615234375,54.90635681152344,
170.55996704101562,49.537017822265625,
189.43820190429688,52.37839889526367,
206.12355041503906,61.85993194580078,
236.19827270507812,67.72187042236328,
246.92364501953125,62.314361572265625,
259.64508056640625,61.50570297241211,
270.9175109863281,65.50839233398438,
275.60760498046875,77.3268051147461,
222.38914489746094,83.17736053466797,
225.2953643798828,94.49687957763672,
228.70272827148438,105.8081283569336,
232.09275817871094,117.74908447265625,
204.61935424804688,137.89385986328125,
215.15536499023438,139.54885864257812,
225.8331298828125,140.80577087402344,
234.09226989746094,139.75729370117188,
241.4932403564453,137.04904174804688,
159.21180725097656,84.9355697631836,
170.07411193847656,78.06452178955078,
180.90008544921875,78.23448944091797,
190.0063018798828,87.79170989990234,
180.29571533203125,87.89417266845703,
169.2889862060547,87.1364517211914,
237.05459594726562,91.56385803222656,
246.23159790039062,84.2203369140625,
256.01727294921875,84.84640502929688,
262.45166015625,93.39009094238281,
255.21705627441406,93.9134521484375,
245.6630096435547,92.61804962158203,
180.3817138671875,175.8520965576172,
198.2689666748047,163.8837127685547,
214.00985717773438,157.5225830078125,
223.1425018310547,159.60072326660156,
230.93202209472656,157.33956909179688,
239.20635986328125,163.8253936767578,
244.34457397460938,175.96322631835938,
238.29429626464844,180.54466247558594,
230.38697814941406,182.7771759033203,
222.1922149658203,183.5378875732422,
212.50965881347656,183.4942626953125,
197.29261779785156,182.0555877685547,
186.6039581298828,174.75222778320312,
213.5438995361328,166.9058074951172,
222.7552490234375,167.42645263671875,
230.4107208251953,167.14755249023438,
239.7914581298828,174.7587432861328,
230.67396545410156,171.67054748535156,
222.66819763183594,172.707763671875,
213.45542907714844,172.56016540527344,
