131.6222381591797,119.47065734863281,
132.57762145996094,133.9339141845703,
134.04721069335938,148.62579345703125,
137.57110595703125,162.53651428222656,
144.3953399658203,173.9823760986328,
155.01638793945312,182.96319580078125,
168.17457580566406,188.20816040039062,
182.25387573242188,190.76644897460938,
195.255859375,189.6231689453125,
206.35540771484375,185.93341064453125,
214.03746032714844,178.1171112060547,
220.96595764160156,169.39149475097656,
224.61532592773438,159.4955291748047,
225.9353790283203,148.8511505126953,
226.63546752929688,137.94578552246094,
226.4998321533203,127.4268798828125,
225.70301818847656,117.39141082763672,
153.72792053222656,117.11746215820312,
161.1066131591797,109.48957061767578,
171.3968963623047,104.70664978027344,
182.2879638671875,104.6524887084961,
192.88352966308594,106.45423126220703,
202.29188537597656,105.8270492553711,
208.51486206054688,103.35252380371094,
215.30873107910156,102.408935546875,
221.2510528564453,104.72228240966797,
223.6494598388672,110.70403289794922,
197.91026306152344,114.05913543701172,
199.1231689453125,121.27954864501953,
200.56617736816406,128.5819854736328,
202.04063415527344,136.26092529296875,
188.23268127441406,144.4971160888672,
193.6701202392578,145.43885803222656,
199.08319091796875,145.75946044921875,
203.77914428710938,144.55552673339844,
207.71456909179688,142.05654907226562,
165.37599182128906,118.2790756225586,
170.8157196044922,114.68881225585938,
176.4709014892578,113.68875122070312,
181.830322265625,116.8870849609375,
176.70965576171875,117.70743560791016,
171.1667938232422,118.39867401123047,
203.7774658203125,115.1417465209961,
208.3589324951172,111.21601104736328,
213.1240234375,110.99335479736328,
216.6234588623047,114.09362030029297,
213.35845947265625,115.17208862304688,
208.66961669921875,115.17628479003906,
175.60769653320312,162.9998321533203,
184.855712890625,159.9097137451172,
192.88600158691406,157.60720825195312,
198.03033447265625,158.38873291015625,
202.4000244140625,156.9279327392578,
206.5681610107422,157.8194580078125,
210.84893798828125,159.83096313476562,
205.68222045898438,160.75328063964844,
201.36904907226562,161.1040802001953,
197.01156616210938,161.9694061279297,
192.012451171875,162.45172119140625,
184.32998657226562,163.27273559570312,
178.4696807861328,162.3534393310547,
192.75942993164062,160.37574768066406,
197.8929901123047,160.2278289794922,
202.32286071777344,159.4058074951172,
208.8269805908203,160.06637573242188,
201.62623596191406,157.61439514160156,
197.18795776367188,158.59934997558594,
192.30882263183594,159.0740509033203,
