49.918025970458984,125.55180358886719,
51.804012298583984,147.81915283203125,
54.96699142456055,169.5101318359375,
60.575984954833984,192.30630493164062,
71.19161224365234,211.9414520263672,
89.00484466552734,226.82252502441406,
113.94976043701172,234.82899475097656,
141.7899627685547,238.0796356201172,
170.21463012695312,238.56820678710938,
198.14523315429688,236.62742614746094,
222.1839599609375,230.66275024414062,
241.51705932617188,220.34243774414062,
253.4637908935547,203.7186279296875,
258.4130859375,183.85545349121094,
259.6402282714844,162.48118591308594,
258.3019714355469,142.43603515625,
255.9600372314453,122.38583374023438,
74.5406723022461,76.77218627929688,
87.86302185058594,60.137046813964844,
106.75711822509766,50.438629150390625,
128.2704315185547,48.603153228759766,
147.40231323242188,55.42862319946289,
174.0153350830078,54.73786163330078,
190.90394592285156,49.5203857421875,
209.7574920654297,52.83762741088867,
226.05686950683594,61.274044036865234,
237.0318603515625,75.41437530517578,
163.71316528320312,76.41358184814453,
165.2330780029297,85.4841537475586,
166.79876708984375,94.38020324707031,
168.29859924316406,104.38951110839844,
145.19515991210938,130.68760681152344,
155.99691772460938,130.85894775390625,
165.90760803222656,131.14402770996094,
175.26158142089844,131.24575805664062,
184.58798217773438,131.50048828125,
94.90474700927734,91.0936050415039,
104.9990463256836,81.81732177734375,
116.81939697265625,81.2070083618164,
129.54013061523438,89.5298843383789,
117.556884765625,91.45878601074219,
105.31768035888672,92.05372619628906,
187.4968719482422,90.36967468261719,
199.1461181640625,82.09297180175781,
211.39913940429688,83.69827270507812,
221.34725952148438,93.20511627197266,
211.15960693359375,93.86233520507812,
198.89222717285156,92.7221450805664,
124.31137084960938,170.63375854492188,
140.99398803710938,153.3953399658203,
156.65802001953125,145.1637420654297,
165.40589904785156,147.4259490966797,
174.9486083984375,145.8101043701172,
189.01902770996094,154.66429138183594,
204.26864624023438,170.65501403808594,
189.71449279785156,175.18263244628906,
176.2855987548828,174.84458923339844,
166.4261016845703,174.8061065673828,
156.67803955078125,174.05718994140625,
141.7141876220703,173.3707733154297,
130.14930725097656,168.9027862548828,
156.56008911132812,157.30752563476562,
165.572998046875,157.91957092285156,
175.1800079345703,158.04745483398438,
198.24688720703125,168.57958984375,
175.79417419433594,165.16650390625,
166.20069885253906,165.0205078125,
156.80323791503906,164.3129119873047,
