122.0696029663086,204.84657287597656,
125.14765167236328,231.65737915039062,
132.48690795898438,258.1230163574219,
140.18161010742188,285.429443359375,
152.5701141357422,310.0060119628906,
172.7733612060547,330.59686279296875,
197.37930297851562,346.03363037109375,
224.16793823242188,355.16241455078125,
252.397705078125,355.0256652832031,
279.5883483886719,348.59661865234375,
300.77569580078125,335.22564697265625,
318.7425231933594,316.9969787597656,
332.6195983886719,294.67041015625,
341.1214294433594,269.26409912109375,
344.8602600097656,241.0862274169922,
345.2904968261719,213.80050659179688,
341.97479248046875,186.69876098632812,
138.84848022460938,166.61143493652344,
150.35693359375,149.17672729492188,
169.76641845703125,141.8880157470703,
190.80557250976562,144.59097290039062,
210.1219024658203,152.42176818847656,
249.0524444580078,151.32191467285156,
266.3470458984375,142.4883270263672,
284.92718505859375,136.24624633789062,
304.5287780761719,136.56005859375,
319.137939453125,148.3761444091797,
234.73294067382812,178.05426025390625,
237.21131896972656,192.43429565429688,
239.92355346679688,206.46083068847656,
242.6018829345703,221.498291015625,
218.9117431640625,248.07713317871094,
230.96774291992188,248.5927734375,
242.51565551757812,248.51605224609375,
253.3632354736328,245.8656768798828,
264.0052490234375,242.53298950195312,
161.88333129882812,191.98902893066406,
172.3367462158203,184.4423065185547,
186.48036193847656,182.96853637695312,
201.4363250732422,190.7345428466797,
187.75650024414062,194.96157836914062,
173.3924560546875,196.15399169921875,
263.8514099121094,184.23875427246094,
275.1240539550781,173.88943481445312,
289.4063415527344,173.48944091796875,
302.35955810546875,179.0294647216797,
291.1025390625,184.9305877685547,
276.77679443359375,186.21730041503906,
205.45278930664062,294.8941345214844,
219.73431396484375,278.05780029296875,
234.8317413330078,266.7820739746094,
244.51974487304688,268.39404296875,
254.07888793945312,264.5570983886719,
268.8103942871094,272.1968078613281,
283.6622619628906,285.1724853515625,
271.58563232421875,295.7358703613281,
259.1859436035156,301.55670166015625,
248.45767211914062,304.094482421875,
238.03919982910156,304.80316162109375,
222.6351776123047,303.4382019042969,
213.4180908203125,293.0672302246094,
236.2960205078125,284.58453369140625,
245.92347717285156,283.5017395019531,
255.84173583984375,281.7413024902344,
275.57574462890625,285.14727783203125,
256.4462890625,282.8271789550781,
246.36924743652344,284.9857177734375,
236.76409912109375,285.3841552734375,
