144.8897247314453,199.4085693359375,
143.77255249023438,222.9045867919922,
147.88844299316406,246.27804565429688,
154.28465270996094,267.5198669433594,
163.23468017578125,288.0319519042969,
175.80860900878906,306.91229248046875,
190.68470764160156,321.09149169921875,
208.41624450683594,332.068115234375,
227.46282958984375,333.77569580078125,
248.6420440673828,331.3959045410156,
270.833251953125,323.2095947265625,
291.55194091796875,309.6139221191406,
308.599609375,291.5904846191406,
320.14678955078125,269.1535949707031,
326.45294189453125,243.1859130859375,
332.22381591796875,215.89730834960938,
334.8302917480469,187.677734375,
147.2793731689453,170.79803466796875,
156.4188690185547,158.77886962890625,
171.96109008789062,153.18087768554688,
188.275146484375,152.79324340820312,
203.5758056640625,155.3341064453125,
232.7959747314453,151.8950653076172,
250.75973510742188,145.96310424804688,
270.4891052246094,144.74293518066406,
289.9161682128906,149.74855041503906,
304.0966491699219,162.4061737060547,
217.63763427734375,180.6608123779297,
216.82510375976562,197.26416015625,
215.92393493652344,213.7875213623047,
215.0791015625,230.73590087890625,
201.0131072998047,247.7516326904297,
210.12571716308594,249.20603942871094,
219.1217498779297,249.89634704589844,
228.7098846435547,247.9379425048828,
238.48138427734375,246.1758575439453,
162.13571166992188,191.41163635253906,
171.54969787597656,183.82455444335938,
184.59759521484375,183.4250030517578,
195.14601135253906,191.5359649658203,
184.239990234375,195.62159729003906,
171.46322631835938,196.25448608398438,
251.1155548095703,187.00686645507812,
262.2490234375,177.35643005371094,
275.5699157714844,177.0997314453125,
287.5609130859375,183.58123779296875,
276.7694091796875,188.7283935546875,
263.4302673339844,189.63401794433594,
195.78448486328125,286.44171142578125,
202.3783721923828,274.4883728027344,
212.74964904785156,267.0498352050781,
220.60714721679688,268.9964904785156,
229.25418090820312,265.77923583984375,
243.7177734375,271.68304443359375,
259.34130859375,281.7417907714844,
245.3717498779297,292.2357177734375,
232.4070587158203,295.7582092285156,
223.27645874023438,296.8011169433594,
214.9239044189453,297.310302734375,
204.46641540527344,294.8624267578125,
201.377685546875,285.32855224609375,
213.256103515625,278.7790832519531,
221.35386657714844,278.91064453125,
230.0342559814453,277.57330322265625,
253.1877899169922,281.4058532714844,
231.0106201171875,280.6091003417969,
222.1103515625,281.736328125,
214.13775634765625,281.6248474121094,
