118.02881622314453,174.6992950439453,
119.33238983154297,191.93316650390625,
121.17491149902344,209.63803100585938,
124.11054229736328,228.64862060546875,
130.1190643310547,247.12020874023438,
143.58071899414062,260.8543395996094,
164.98641967773438,266.741943359375,
190.1523895263672,268.5768737792969,
216.4358367919922,267.1705627441406,
243.47457885742188,264.3180236816406,
269.17120361328125,258.8549499511719,
290.30914306640625,250.5069122314453,
301.7890930175781,235.78421020507812,
304.8856201171875,217.09617614746094,
304.1286926269531,197.13345336914062,
303.005615234375,178.1110382080078,
301.75225830078125,158.86798095703125,
133.34132385253906,132.9503936767578,
143.1256103515625,118.6613998413086,
158.29078674316406,110.13594055175781,
175.2030792236328,108.16947937011719,
192.06053161621094,111.40157318115234,
213.6084442138672,110.17335510253906,
230.54371643066406,104.94050598144531,
248.77130126953125,104.80321502685547,
265.9869079589844,110.31946563720703,
278.2840270996094,123.14740753173828,
204.99380493164062,128.42640686035156,
206.08059692382812,137.04026794433594,
207.1055450439453,145.59912109375,
208.11985778808594,155.03684997558594,
194.1788787841797,181.9476776123047,
201.952392578125,180.40817260742188,
209.5213165283203,178.6506805419922,
216.59556579589844,178.56576538085938,
224.32363891601562,178.64918518066406,
151.55235290527344,144.8555145263672,
159.92633056640625,136.06488037109375,
171.0279083251953,134.4146728515625,
181.10198974609375,142.17337036132812,
171.79396057128906,144.7359619140625,
160.4564208984375,145.89718627929688,
230.41107177734375,138.76461791992188,
239.54501342773438,129.84132385253906,
250.6979522705078,129.78622436523438,
260.2342834472656,137.53848266601562,
251.70068359375,139.59320068359375,
240.27529907226562,139.957275390625,
180.4002227783203,220.3913116455078,
192.18186950683594,205.9818115234375,
203.214599609375,197.1750030517578,
209.9473419189453,197.69581604003906,
217.30836486816406,195.239990234375,
229.29830932617188,201.25828552246094,
243.4210205078125,212.2264404296875,
230.6034393310547,212.35948181152344,
219.79336547851562,212.55650329589844,
212.07872009277344,213.81100463867188,
204.83888244628906,214.87506103515625,
194.13180541992188,218.36749267578125,
186.10145568847656,218.02935791015625,
203.8852081298828,207.87742614746094,
210.72642517089844,206.86936950683594,
218.26527404785156,205.78517150878906,
237.50827026367188,210.73501586914062,
218.77529907226562,202.432373046875,
211.25279235839844,203.24769592285156,
204.36692810058594,204.5880126953125,
